<Qucs Schematic 0.0.19>
<Properties>
  <View=0,0,1290,800,1,0,0>
  <Grid=10,10,1>
  <DataSet=example_probe_and_subcircuit.dat>
  <DataDisplay=example_probe_and_subcircuit.dpl>
  <OpenDisplay=1>
  <Script=example_probe_and_subcircuit.m>
  <RunScript=0>
  <showFrame=0>
  <FrameText0=Title>
  <FrameText1=Drawn By:>
  <FrameText2=Date:>
  <FrameText3=Revision:>
</Properties>
<Symbol>
</Symbol>
<Components>
  <GND * 1 200 260 0 0 0 0>
  <Vdc V1 1 200 190 18 -26 0 1 "1 V" 1>
  <R R4 1 290 240 -26 15 0 0 "50 Ohm" 1 "26.85" 0 "0.0" 0 "0.0" 0 "26.85" 0 "european" 0>
  <R R1 1 290 130 -26 15 0 0 "50 Ohm" 1 "26.85" 0 "0.0" 0 "0.0" 0 "26.85" 0 "european" 0>
  <R R3 1 500 240 -26 15 0 0 "50 Ohm" 1 "26.85" 0 "0.0" 0 "0.0" 0 "26.85" 0 "european" 0>
  <VProbe VProbe1 1 510 350 -76 -16 0 2>
  <R R5 1 410 180 15 -26 0 1 "50 Ohm" 1 "26.85" 0 "0.0" 0 "0.0" 0 "26.85" 0 "european" 0>
  <IProbe IProbe2 1 370 240 -26 -31 0 2>
  <IProbe IProbe1 1 980 180 -59 -26 0 3>
  <R R2 1 800 130 -26 15 0 0 "50 Ohm" 1 "26.85" 0 "0.0" 0 "0.0" 0 "26.85" 0 "european" 0>
  <L L1 1 700 130 -26 10 0 0 "1 nH" 1 "" 0>
  <C C1 1 600 190 17 -26 0 1 "1 pF" 1 "" 0 "neutral" 0>
  <.TR TR1 1 260 400 0 71 0 0 "lin" 1 "0" 1 "1 ms" 1 "11" 0 "Trapezoidal" 0 "2" 0 "1 ns" 0 "1e-16" 0 "150" 0 "0.001" 0 "1 pA" 0 "1 uV" 0 "26.85" 0 "1e-3" 0 "1e-6" 0 "1" 0 "CroutLU" 0 "no" 0 "yes" 0 "0" 0>
  <.ETR ETR1 1 230 600 0 71 0 0 "Trapezoidal" 0 "2" 0 "1 ns" 0 "1e-16" 0 "150" 0 "0.001" 0 "1 pA" 0 "1 uV" 0 "26.85" 0 "1e-3" 0 "1e-6" 0 "1" 0 "CroutLU" 0 "no" 0 "yes" 0 "0" 0>
  <Sub SUB1 1 800 240 -26 21 0 0 "example_sub_subcircuit" 1>
</Components>
<Wires>
  <200 220 200 240 "" 0 0 0 "">
  <200 240 200 260 "" 0 0 0 "">
  <200 240 260 240 "" 0 0 0 "">
  <200 130 200 160 "" 0 0 0 "">
  <200 130 260 130 "" 0 0 0 "">
  <320 130 410 130 "test_label_2" 360 70 42 "">
  <530 240 570 240 "" 0 0 0 "">
  <520 330 570 330 "" 0 0 0 "">
  <570 240 570 330 "" 0 0 0 "">
  <470 330 500 330 "" 0 0 0 "">
  <470 240 470 330 "" 0 0 0 "">
  <410 130 410 150 "" 0 0 0 "">
  <410 240 470 240 "" 0 0 0 "">
  <410 210 410 240 "" 0 0 0 "">
  <400 240 410 240 "" 0 0 0 "">
  <320 240 340 240 "" 0 0 0 "">
  <570 240 600 240 "" 0 0 0 "">
  <980 130 980 150 "" 0 0 0 "">
  <830 130 980 130 "" 0 0 0 "">
  <600 220 600 240 "" 0 0 0 "">
  <600 130 600 160 "" 0 0 0 "">
  <600 130 670 130 "" 0 0 0 "">
  <730 130 770 130 "" 0 0 0 "">
  <410 130 600 130 "" 0 0 0 "">
  <600 240 770 240 "" 0 0 0 "">
  <830 240 980 240 "" 0 0 0 "">
  <980 210 980 240 "" 0 0 0 "">
  <200 130 200 130 "test_label" 200 70 0 "">
</Wires>
<Diagrams>
  <Tab 570 680 546 224 3 #c0c0c0 1 00 1 0 1 1 1 0 1 1 1 0 1 11 315 0 225 "" "" "">
	<"IProbe1.It" #0000ff 0 3 1 0 0>
	<"V1.It" #0000ff 0 3 1 0 0>
	<"test_label.Vt" #0000ff 0 3 0 0 0>
	<"test_label_2.Vt" #0000ff 0 3 0 0 0>
	<"IProbe2.It" #0000ff 0 3 1 0 0>
  </Tab>
</Diagrams>
<Paintings>
</Paintings>
