<Qucs Schematic 0.0.19>
<Properties>
  <View=0,0,800,800,1,0,0>
  <Grid=10,10,1>
  <DataSet=example_subcircuit.dat>
  <DataDisplay=example_subcircuit.dpl>
  <OpenDisplay=1>
  <Script=example_subcircuit.m>
  <RunScript=0>
  <showFrame=0>
  <FrameText0=Title>
  <FrameText1=Drawn By:>
  <FrameText2=Date:>
  <FrameText3=Revision:>
</Properties>
<Symbol>
  <.ID -20 14 SUB>
  <.PortSym -30 0 1 0>
  <Line -20 -10 40 0 #000080 2 1>
  <Line 20 -10 0 20 #000080 2 1>
  <Line -20 10 40 0 #000080 2 1>
  <Line -20 -10 0 20 #000080 2 1>
  <Line -30 0 10 0 #000080 2 1>
  <Line 20 0 10 0 #000080 2 1>
  <.PortSym 30 0 2 0>
</Symbol>
<Components>
  <R R1 1 300 110 -26 15 0 0 "10 Ohm" 1 "26.85" 0 "0.0" 0 "0.0" 0 "26.85" 0 "european" 0>
  <Port P1 1 140 110 -23 12 0 0 "1" 1 "analog" 0>
  <Port P2 1 550 110 4 -42 0 2 "2" 1 "analog" 0>
  <VProbe VProbeS1 1 300 50 28 -31 0 0>
  <IProbe IProbeS1 1 440 110 -26 16 0 0>
</Components>
<Wires>
  <470 110 550 110 "" 0 0 0 "">
  <330 110 360 110 "" 0 0 0 "">
  <140 110 220 110 "" 0 0 0 "">
  <220 70 290 70 "" 0 0 0 "">
  <220 110 270 110 "" 0 0 0 "">
  <220 70 220 110 "" 0 0 0 "">
  <310 70 360 70 "" 0 0 0 "">
  <360 110 410 110 "" 0 0 0 "">
  <360 70 360 110 "" 0 0 0 "">
</Wires>
<Diagrams>
</Diagrams>
<Paintings>
</Paintings>
