<Qucs Schematic 0.0.19>
<Properties>
  <View=0,0,800,800,1,0,0>
  <Grid=10,10,1>
  <DataSet=classic_osci.dat>
  <DataDisplay=classic_osci.dpl>
  <OpenDisplay=1>
  <Script=classic_osci.m>
  <RunScript=0>
  <showFrame=0>
  <FrameText0=Title>
  <FrameText1=Drawn By:>
  <FrameText2=Date:>
  <FrameText3=Revision:>
</Properties>
<Symbol>
</Symbol>
<Components>
  <C C1 1 290 210 17 -26 0 1 "1 nF" 1 "" 0 "neutral" 0>
  <L L1 1 380 210 10 -26 0 1 "100 uH" 1 "" 0>
  <Tr Tr1 1 210 270 37 -29 0 1 "1" 1>
  <GND * 1 600 240 0 0 0 0>
  <GND * 1 290 380 0 0 0 0>
  <Vdc V1 1 600 210 18 -26 0 1 "10 V" 1>
  <_BJT T1 1 290 340 8 -26 0 0 "npn" 0 "1e-16" 0 "1" 0 "1" 0 "0" 0 "0" 0 "0" 0 "0" 0 "0" 0 "1.5" 0 "0" 0 "2" 0 "200" 1 "1" 0 "0" 0 "0" 0 "0" 0 "0" 0 "0" 0 "0" 0 "0.75" 0 "0.33" 0 "0" 0 "0.75" 0 "0.33" 0 "1.0" 0 "0" 0 "0.75" 0 "0" 0 "0.5" 0 "0.0" 0 "0.0" 0 "0.0" 0 "0.0" 0 "0.0" 0 "26.85" 0 "0.0" 0 "1.0" 0 "1.0" 0 "0.0" 0 "1.0" 0 "1.0" 0 "0.0" 0 "0.0" 0 "3.0" 0 "1.11" 0 "26.85" 0 "1.0" 0>
  <GND * 1 460 380 0 0 0 0>
  <R R1 1 460 210 15 -26 0 1 "500 kOhm" 1 "26.85" 0 "0.0" 0 "0.0" 0 "26.85" 0 "european" 0>
  <R R2 1 80 210 15 -26 0 1 "120 kOhm" 1 "26.85" 0 "0.0" 0 "0.0" 0 "26.85" 0 "european" 0>
  <R R3 1 460 350 15 -26 0 1 "600 Ohm" 1 "26.85" 0 "0.0" 0 "0.0" 0 "26.85" 0 "european" 0>
  <C C3 1 390 300 -26 17 0 0 "5 nF" 1 "" 0 "neutral" 0>
  <.TR TR1 1 600 320 0 67 0 0 "lin" 1 "0" 1 "30 us" 1 "200" 1 "Trapezoidal" 0 "2" 0 "1 ns" 0 "1e-16" 0 "150" 0 "0.001" 0 "1 pA" 0 "1 uV" 0 "26.85" 0 "1e-3" 0 "1e-6" 0 "1" 0 "CroutLU" 0 "no" 0 "yes" 0 "0" 0>
</Components>
<Wires>
  <380 240 460 240 "" 0 0 0 "">
  <240 240 290 240 "" 0 0 0 "">
  <290 240 380 240 "" 0 0 0 "">
  <180 180 290 180 "" 0 0 0 "">
  <380 180 460 180 "" 0 0 0 "">
  <290 180 380 180 "" 0 0 0 "">
  <180 180 180 240 "" 0 0 0 "">
  <80 180 180 180 "" 0 0 0 "">
  <80 240 80 320 "" 0 0 0 "">
  <180 300 180 340 "" 0 0 0 "">
  <80 320 240 320 "" 0 0 0 "">
  <240 300 240 320 "" 0 0 0 "">
  <180 340 260 340 "" 0 0 0 "">
  <290 240 290 300 "" 0 0 0 "">
  <290 370 290 380 "" 0 0 0 "">
  <460 180 600 180 "" 0 0 0 "">
  <290 300 290 310 "" 0 0 0 "">
  <290 300 360 300 "" 0 0 0 "">
  <420 300 460 300 "" 0 0 0 "">
  <460 300 460 320 "" 0 0 0 "">
  <460 320 460 320 "Output" 490 290 0 "">
</Wires>
<Diagrams>
</Diagrams>
<Paintings>
  <Text 80 390 16 #000000 0 "Meissner oscillator">
</Paintings>
