<Qucs Schematic 0.0.19>
<Properties>
  <View=0,10,677,437,0.995316,0,0>
  <Grid=10,10,1>
  <DataSet=colpitts_base.dat>
  <DataDisplay=colpitts_base.dpl>
  <OpenDisplay=1>
  <Script=colpitts_base.m>
  <RunScript=0>
  <showFrame=0>
  <FrameText0=Title>
  <FrameText1=Drawn By:>
  <FrameText2=Date:>
  <FrameText3=Revision:>
</Properties>
<Symbol>
</Symbol>
<Components>
  <L L1 1 300 190 -38 -26 1 1 "5u" 1 "" 0>
  <Vdc Vp 1 250 260 -26 18 0 0 "5 V" 1>
  <Vdc Vn 1 130 260 -26 18 0 0 "5 V" 1>
  <GND * 1 190 280 0 0 0 0>
  <_BJT T1 1 190 210 -26 -50 1 1 "npn" 1 "1e-16" 0 "1" 0 "1" 0 "0" 0 "0" 0 "0" 0 "0" 0 "0" 0 "1.5" 0 "0" 0 "2" 0 "100" 0 "1" 0 "0" 0 "0" 0 "0" 0 "0" 0 "100" 1 "0" 0 "0.75" 0 "0.33" 0 "0" 0 "0.75" 0 "0.33" 0 "1.0" 0 "0" 0 "0.75" 0 "0" 0 "0.5" 0 "0.0" 0 "0.0" 0 "0.0" 0 "0.0" 0 "0.0" 0 "26.85" 0 "0.0" 0 "1.0" 0 "1.0" 0 "0.0" 0 "1.0" 0 "1.0" 0 "0.0" 0 "0.0" 0 "3.0" 0 "1.11" 0 "26.85" 0 "1.0" 0>
  <C C2 1 340 150 17 -26 0 1 "200 pF" 1 "" 0 "neutral" 0>
  <C C1 1 340 230 17 -26 0 1 "200p" 1 "" 0 "neutral" 0>
  <Eqn Eqn1 1 500 230 -19 13 0 0 "Vout=Output1.Vt-Output2.Vt" 1 "yes" 0>
  <R R1 1 80 210 15 -26 1 3 "2.2k" 1 "26.85" 0 "0.0" 0 "0.0" 0 "26.85" 0 "european" 0>
  <.TR TR1 1 480 80 0 67 0 0 "lin" 1 "0 us" 1 "3 us" 1 "300" 0 "Trapezoidal" 0 "2" 0 "1 ns" 0 "1e-16" 0 "150" 0 "0.001" 0 "1 pA" 0 "1 uV" 0 "26.85" 0 "1e-3" 0 "1e-6" 0 "1" 0 "CroutLU" 0 "no" 0 "yes" 0 "0" 0>
</Components>
<Wires>
  <160 260 190 260 "" 0 0 0 "">
  <190 260 220 260 "" 0 0 0 "">
  <190 240 190 260 "" 0 0 0 "">
  <340 180 340 190 "" 0 0 0 "">
  <280 260 300 260 "" 0 0 0 "">
  <300 120 340 120 "" 0 0 0 "">
  <300 120 300 160 "" 0 0 0 "">
  <300 260 340 260 "" 0 0 0 "">
  <300 220 300 260 "" 0 0 0 "">
  <240 120 300 120 "" 0 0 0 "">
  <240 120 240 210 "" 0 0 0 "">
  <220 210 240 210 "" 0 0 0 "">
  <150 210 160 210 "" 0 0 0 "">
  <190 260 190 280 "" 0 0 0 "">
  <420 100 420 190 "" 0 0 0 "">
  <150 100 420 100 "" 0 0 0 "">
  <150 100 150 160 "" 0 0 0 "">
  <340 190 340 200 "" 0 0 0 "">
  <340 190 420 190 "" 0 0 0 "">
  <80 160 80 180 "" 0 0 0 "">
  <150 160 150 210 "" 0 0 0 "">
  <80 160 150 160 "" 0 0 0 "">
  <80 240 80 260 "" 0 0 0 "">
  <80 260 100 260 "" 0 0 0 "">
  <300 120 300 120 "Output" 330 70 0 "">
</Wires>
<Diagrams>
</Diagrams>
<Paintings>
  <Text 40 50 16 #000000 0 "Yet another Colpitts oscillator.">
</Paintings>
