<Qucs Schematic 0.0.19>
<Properties>
  <View=0,0,860,660,1,0,0>
  <Grid=10,10,1>
  <DataSet=diode_hb.dat>
  <DataDisplay=diode_hb.dpl>
  <OpenDisplay=0>
  <Script=diode_hb.m>
  <RunScript=0>
  <showFrame=0>
  <FrameText0=Title>
  <FrameText1=Drawn By:>
  <FrameText2=Date:>
  <FrameText3=Revision:>
</Properties>
<Symbol>
</Symbol>
<Components>
  <GND * 1 100 410 0 0 0 0>
  <Vac V1 1 100 370 -70 -26 1 1 "10 V" 1 "1 GHz" 1 "0" 0 "0" 0>
  <C C1 0 210 370 17 -26 0 1 "1 pF" 1 "" 0 "neutral" 0>
  <Diode D1 1 470 360 13 -26 0 1 "1e-15 A" 1 "1" 1 "0 fF" 1 "0.5" 0 "0.7 V" 0 "0.5" 0 "0.0 fF" 1 "0.0" 0 "2.0" 0 "0.0 Ohm" 1 "0.0 ps" 0 "0" 0 "0.0" 0 "1.0" 0 "1.0" 0 "0.7" 1 "1 mA" 0 "26.85" 0 "3.0" 0 "1.11" 0 "0.0" 0 "0.0" 0 "0.0" 0 "0.0" 0 "0.0" 0 "0.0" 0 "26.85" 0 "1.0" 0 "normal" 0>
  <R R1 1 160 320 -26 15 0 0 "100" 1 "26.85" 0 "0.0" 0 "0.0" 0 "26.85" 0 "european" 0>
  <R R2 1 310 320 -26 15 0 0 "100" 1 "26.85" 0 "0.0" 0 "0.0" 0 "26.85" 0 "european" 0>
  <R R3 0 370 370 15 -26 0 1 "100k" 1 "26.85" 0 "0.0" 0 "0.0" 0 "26.85" 0 "european" 0>
  <.HB HB1 1 100 70 0 67 0 0 "1 GHz" 1 "8" 1 "1 pA" 1 "1 uV" 1 "0.001" 1 "150" 0>
  <Eqn Eqn1 1 130 490 -35 16 0 0 "Spectrum=Time2Freq(Node3.Vt, time)" 1 "yes" 0>
  <.TR TR1 1 370 70 0 67 0 0 "lin" 1 "0" 1 "4 ns" 1 "256" 1 "Trapezoidal" 0 "2" 0 "1 ns" 0 "1e-16" 0 "150" 0 "0.001" 0 "1 pA" 0 "1 uV" 0 "26.85" 0 "1e-3" 0 "1e-6" 0 "1" 0 "CroutLU" 0 "no" 0 "yes" 0 "0" 0>
</Components>
<Wires>
  <100 400 100 410 "" 0 0 0 "">
  <100 410 210 410 "" 0 0 0 "">
  <100 320 130 320 "Node1" 130 270 7 "">
  <100 320 100 340 "" 0 0 0 "">
  <190 320 210 320 "Node2" 240 270 18 "">
  <210 400 210 410 "" 0 0 0 "">
  <210 320 210 340 "" 0 0 0 "">
  <210 320 280 320 "" 0 0 0 "">
  <470 320 470 330 "" 0 0 0 "">
  <470 390 470 410 "" 0 0 0 "">
  <210 410 370 410 "" 0 0 0 "">
  <370 400 370 410 "" 0 0 0 "">
  <340 320 370 320 "" 0 0 0 "">
  <370 320 370 340 "" 0 0 0 "">
  <370 320 470 320 "Node3" 420 280 25 "">
  <370 410 470 410 "" 0 0 0 "">
</Wires>
<Diagrams>
  <Rect 620 440 240 160 3 #c0c0c0 1 00 1 0 1e+09 4e+09 1 -0.117973 0.5 1.29775 1 -1 1 1 315 0 225 "" "" "">
	<"Node3.Vb" #0000ff 2 3 0 6 0>
  </Rect>
  <Rect 620 230 240 160 3 #c0c0c0 1 00 1 0 5e-10 2e-09 1 -1.18284 1 1.31219 1 -1 1 1 315 0 225 "" "" "">
	<"Node3.Vt" #0000ff 2 3 0 0 0>
  </Rect>
  <Rect 620 660 240 160 3 #c0c0c0 1 00 1 0 2e-10 1e-09 1 -0.0577169 0.2 0.6 1 -1 1 1 315 0 225 "" "" "">
	<"Spectrum" #0000ff 2 3 0 0 0>
  </Rect>
</Diagrams>
<Paintings>
</Paintings>
