<Qucs Schematic 0.0.19>
<Properties>
  <View=0,30,800,606,1,0,0>
  <Grid=10,10,1>
  <DataSet=elliptic_5th.dat>
  <DataDisplay=elliptic_5th.dpl>
  <OpenDisplay=1>
  <Script=elliptic_5th.m>
  <RunScript=0>
  <showFrame=0>
  <FrameText0=Title>
  <FrameText1=Drawn By:>
  <FrameText2=Date:>
  <FrameText3=Revision:>
</Properties>
<Symbol>
</Symbol>
<Components>
  <GND * 1 160 220 0 0 0 0>
  <C C1 1 160 190 17 -26 0 1 "35.69 pF" 1 "" 0 "neutral" 0>
  <C C2 1 230 120 -26 17 0 0 "63.31 pF" 1 "" 0 "neutral" 0>
  <L L1 1 230 60 -26 10 0 0 "31.77 nH" 1 "" 0>
  <GND * 1 300 220 0 0 0 0>
  <C C4 1 300 190 17 -26 0 1 "57.26 pF" 1 "" 0 "neutral" 0>
  <C C3 1 370 120 -26 17 0 0 "18.73 pF" 1 "" 0 "neutral" 0>
  <L L2 1 370 60 -26 10 0 0 "61.68 nH" 1 "" 0>
  <GND * 1 440 220 0 0 0 0>
  <C C5 1 440 190 17 -26 0 1 "54.01 pF" 1 "" 0 "neutral" 0>
  <Pac P2 1 560 150 18 -26 0 1 "2" 1 "50 Ohm" 1 "0 dBm" 1 "1 GHz" 1 "26.85" 0>
  <GND * 1 560 180 0 0 0 0>
  <Pac P1 1 50 150 18 -26 0 1 "1" 1 "50 Ohm" 1 "0 dBm" 1 "1 GHz" 1 "26.85" 0>
  <GND * 1 50 180 0 0 0 0>
  <Eqn Eqn1 1 220 290 -23 14 0 0 "S11_dB=dB(S[1,1])" 1 "S21_dB=dB(S[2,1])" 1 "yes" 0>
  <.SP SP1 1 100 300 -50 67 0 0 "lin" 1 "1 MHz" 1 "150 MHz" 1 "300" 1 "no" 0 "1" 0 "2" 0 "no" 0 "no" 0>
</Components>
<Wires>
  <160 90 160 160 "" 0 0 0 "">
  <180 120 200 120 "" 0 0 0 "">
  <180 60 200 60 "" 0 0 0 "">
  <180 60 180 90 "" 0 0 0 "">
  <260 60 280 60 "" 0 0 0 "">
  <260 120 280 120 "" 0 0 0 "">
  <280 60 280 90 "" 0 0 0 "">
  <300 90 300 160 "" 0 0 0 "">
  <280 90 280 120 "" 0 0 0 "">
  <280 90 300 90 "" 0 0 0 "">
  <320 120 340 120 "" 0 0 0 "">
  <320 60 340 60 "" 0 0 0 "">
  <400 60 420 60 "" 0 0 0 "">
  <400 120 420 120 "" 0 0 0 "">
  <420 60 420 90 "" 0 0 0 "">
  <420 90 420 120 "" 0 0 0 "">
  <320 60 320 90 "" 0 0 0 "">
  <320 90 320 120 "" 0 0 0 "">
  <300 90 320 90 "" 0 0 0 "">
  <180 90 180 120 "" 0 0 0 "">
  <160 90 180 90 "" 0 0 0 "">
  <440 90 440 160 "" 0 0 0 "">
  <420 90 440 90 "" 0 0 0 "">
  <560 90 560 120 "" 0 0 0 "">
  <440 90 560 90 "" 0 0 0 "">
  <50 90 50 120 "" 0 0 0 "">
  <50 90 160 90 "" 0 0 0 "">
</Wires>
<Diagrams>
</Diagrams>
<Paintings>
  <Text 350 260 18 #000000 0 "5th Order Low Pass Elliptic Filter \nEnd of pass band:  100MHz ">
</Paintings>
