<Qucs Schematic 0.0.19>
<Properties>
  <View=0,20,800,780,1,0,0>
  <Grid=10,10,1>
  <DataSet=fullwaverectifier_2.dat>
  <DataDisplay=fullwaverectifier_2.dpl>
  <OpenDisplay=0>
  <Script=fullwaverectifier_2.m>
  <RunScript=0>
  <showFrame=0>
  <FrameText0=Title>
  <FrameText1=Drawn By:>
  <FrameText2=Date:>
  <FrameText3=Revision:>
</Properties>
<Symbol>
</Symbol>
<Components>
  <R R1 1 50 190 15 -26 0 1 "1k" 1 "26.85" 0 "0.0" 0 "0.0" 0 "26.85" 0 "european" 0>
  <Eqn Eqn1 1 80 360 -31 17 0 0 "Veff=220" 1 "Vamp=Veff*sqrt(2)" 1 "Vfreq=50" 1 "Tperiod=1/Vfreq" 1 "Tmax=2*Tperiod" 1 "yes" 0>
  <.TR TR1 1 200 350 0 67 0 0 "lin" 1 "0" 1 "Tmax" 1 "201" 1 "Trapezoidal" 0 "2" 0 "1 ns" 0 "1e-16" 0 "150" 0 "0.001" 0 "1 pA" 0 "1 uV" 0 "26.85" 0 "1e-3" 0 "1e-6" 0 "1" 0 "CroutLU" 0 "no" 0 "yes" 0 "0" 0>
  <GND * 1 50 270 0 0 0 0>
  <Diode D4 1 210 160 -26 15 0 0 "1e-15 A" 0 "1" 0 "10 fF" 0 "0.5" 0 "0.7 V" 0 "0.5" 0 "0.0 fF" 0 "0.0" 0 "2.0" 0 "0.0 Ohm" 0 "0.0 ps" 0 "0" 0 "0.0" 0 "1.0" 0 "1.0" 0 "0" 0 "1 mA" 0 "26.85" 0 "3.0" 0 "1.11" 0 "0.0" 0 "0.0" 0 "0.0" 0 "0.0" 0 "0.0" 0 "0.0" 0 "26.85" 0 "1.0" 0 "normal" 0>
  <Diode D1 1 210 110 -26 15 0 0 "1e-15 A" 0 "1" 0 "10 fF" 0 "0.5" 0 "0.7 V" 0 "0.5" 0 "0.0 fF" 0 "0.0" 0 "2.0" 0 "0.0 Ohm" 0 "0.0 ps" 0 "0" 0 "0.0" 0 "1.0" 0 "1.0" 0 "0" 0 "1 mA" 0 "26.85" 0 "3.0" 0 "1.11" 0 "0.0" 0 "0.0" 0 "0.0" 0 "0.0" 0 "0.0" 0 "0.0" 0 "26.85" 0 "1.0" 0 "normal" 0>
  <Diode D3 1 210 220 -26 15 1 2 "1e-15 A" 0 "1" 0 "10 fF" 0 "0.5" 0 "0.7 V" 0 "0.5" 0 "0.0 fF" 0 "0.0" 0 "2.0" 0 "0.0 Ohm" 0 "0.0 ps" 0 "0" 0 "0.0" 0 "1.0" 0 "1.0" 0 "0" 0 "1 mA" 0 "26.85" 0 "3.0" 0 "1.11" 0 "0.0" 0 "0.0" 0 "0.0" 0 "0.0" 0 "0.0" 0 "0.0" 0 "26.85" 0 "1.0" 0 "normal" 0>
  <Diode D2 1 210 270 -26 15 1 2 "1e-15 A" 0 "1" 0 "10 fF" 0 "0.5" 0 "0.7 V" 0 "0.5" 0 "0.0 fF" 0 "0.0" 0 "2.0" 0 "0.0 Ohm" 0 "0.0 ps" 0 "0" 0 "0.0" 0 "1.0" 0 "1.0" 0 "0" 0 "1 mA" 0 "26.85" 0 "3.0" 0 "1.11" 0 "0.0" 0 "0.0" 0 "0.0" 0 "0.0" 0 "0.0" 0 "0.0" 0 "26.85" 0 "1.0" 0 "normal" 0>
  <Vac V1 1 440 190 18 -26 0 1 "Vamp" 1 "Vfreq" 1 "0" 0 "0" 0>
  <Tr Tr1 1 330 190 -29 38 0 0 "1" 1>
  <GND * 1 440 270 0 0 0 0>
</Components>
<Wires>
  <50 110 50 160 "" 0 0 0 "">
  <50 110 160 110 "out" 60 70 42 "">
  <50 220 50 270 "" 0 0 0 "">
  <240 270 270 270 "" 0 0 0 "">
  <240 110 260 110 "" 0 0 0 "">
  <270 160 270 270 "" 0 0 0 "">
  <240 160 270 160 "" 0 0 0 "">
  <160 160 180 160 "" 0 0 0 "">
  <160 110 180 110 "" 0 0 0 "">
  <160 110 160 160 "" 0 0 0 "">
  <160 220 180 220 "" 0 0 0 "">
  <160 270 180 270 "" 0 0 0 "">
  <160 220 160 270 "" 0 0 0 "">
  <240 220 260 220 "" 0 0 0 "">
  <260 110 260 220 "" 0 0 0 "">
  <260 110 300 110 "" 0 0 0 "">
  <270 270 300 270 "" 0 0 0 "">
  <360 220 360 270 "" 0 0 0 "">
  <440 220 440 270 "" 0 0 0 "">
  <360 270 440 270 "" 0 0 0 "">
  <440 110 440 160 "" 0 0 0 "">
  <360 110 360 160 "" 0 0 0 "">
  <360 110 440 110 "in" 420 80 40 "">
  <300 220 300 270 "" 0 0 0 "">
  <300 110 300 160 "" 0 0 0 "">
  <50 270 160 270 "" 0 0 0 "">
</Wires>
<Diagrams>
  <Rect 390 470 240 160 3 #c0c0c0 1 00 1 0 0.02 0.08 1 -500 500 500 1 -1 1 1 315 0 225 "time" "" "">
	<"in.Vt" #0000ff 2 3 0 0 0>
	<"out.Vt" #ff0000 2 3 0 0 0>
  </Rect>
</Diagrams>
<Paintings>
  <Text 50 40 16 #000000 0 "Gratz bridge rectifier: a full-wave rectifier using 4 diodes.">
</Paintings>
