<Qucs Schematic 0.0.19>
<Properties>
  <View=0,10,800,760,1,0,0>
  <Grid=10,10,1>
  <DataSet=fullwaverectifier_1.dat>
  <DataDisplay=fullwaverectifier_1.dpl>
  <OpenDisplay=0>
  <Script=fullwaverectifier_1.m>
  <RunScript=0>
  <showFrame=0>
  <FrameText0=Title>
  <FrameText1=Drawn By:>
  <FrameText2=Date:>
  <FrameText3=Revision:>
</Properties>
<Symbol>
</Symbol>
<Components>
  <sTr Tr1 1 320 180 -29 78 0 0 "1" 1 "1" 1>
  <R R1 1 50 180 15 -26 0 1 "1k" 1 "26.85" 0 "0.0" 0 "0.0" 0 "26.85" 0 "european" 0>
  <GND * 1 50 250 0 0 0 0>
  <GND * 1 430 250 0 0 0 0>
  <Vac V1 1 430 180 18 -26 0 1 "Vamp" 1 "Vfreq" 1 "0" 0 "0" 0>
  <Diode D1 1 200 110 -26 15 0 0 "1e-15 A" 0 "1" 0 "10 fF" 0 "0.5" 0 "0.7 V" 0 "0.5" 0 "0.0 fF" 0 "0.0" 0 "2.0" 0 "0.0 Ohm" 0 "0.0 ps" 0 "0" 0 "0.0" 0 "1.0" 0 "1.0" 0 "0" 0 "1 mA" 0 "26.85" 0 "3.0" 0 "1.11" 0 "0.0" 0 "0.0" 0 "0.0" 0 "0.0" 0 "0.0" 0 "0.0" 0 "26.85" 0 "1.0" 0 "normal" 0>
  <Diode D2 1 200 250 -26 15 0 0 "1e-15 A" 0 "1" 0 "10 fF" 0 "0.5" 0 "0.7 V" 0 "0.5" 0 "0.0 fF" 0 "0.0" 0 "2.0" 0 "0.0 Ohm" 0 "0.0 ps" 0 "0" 0 "0.0" 0 "1.0" 0 "1.0" 0 "0" 0 "1 mA" 0 "26.85" 0 "3.0" 0 "1.11" 0 "0.0" 0 "0.0" 0 "0.0" 0 "0.0" 0 "0.0" 0 "0.0" 0 "26.85" 0 "1.0" 0 "normal" 0>
  <Eqn Eqn1 1 80 350 -31 17 0 0 "Veff=220" 1 "Vamp=Veff*sqrt(2)" 1 "Vfreq=50" 1 "Tperiod=1/Vfreq" 1 "Tmax=2*Tperiod" 1 "yes" 0>
  <.TR TR1 1 200 340 0 67 0 0 "lin" 1 "0" 1 "Tmax" 1 "201" 1 "Trapezoidal" 0 "2" 0 "1 ns" 0 "1e-16" 0 "150" 0 "0.001" 0 "1 pA" 0 "1 uV" 0 "26.85" 0 "1e-3" 0 "1e-6" 0 "1" 0 "CroutLU" 0 "no" 0 "yes" 0 "0" 0>
</Components>
<Wires>
  <230 110 290 110 "" 0 0 0 "">
  <230 250 290 250 "" 0 0 0 "">
  <130 250 170 250 "" 0 0 0 "">
  <130 110 130 250 "" 0 0 0 "">
  <130 110 170 110 "" 0 0 0 "">
  <50 110 130 110 "out" 60 70 42 "">
  <50 110 50 150 "" 0 0 0 "">
  <290 170 290 180 "" 0 0 0 "">
  <290 180 290 190 "" 0 0 0 "">
  <110 180 290 180 "" 0 0 0 "">
  <110 180 110 250 "" 0 0 0 "">
  <50 250 110 250 "" 0 0 0 "">
  <50 210 50 250 "" 0 0 0 "">
  <430 110 430 150 "" 0 0 0 "">
  <350 110 430 110 "in" 410 80 40 "">
  <350 110 350 150 "" 0 0 0 "">
  <350 210 350 250 "" 0 0 0 "">
  <350 250 430 250 "" 0 0 0 "">
  <430 210 430 250 "" 0 0 0 "">
</Wires>
<Diagrams>
  <Rect 390 460 240 160 3 #c0c0c0 1 00 1 0 0.02 0.08 1 -500 500 500 1 -1 1 1 315 0 225 "time" "" "">
	<"in.Vt" #0000ff 2 3 0 0 0>
	<"out.Vt" #ff0000 2 3 0 0 0>
  </Rect>
</Diagrams>
<Paintings>
  <Text 50 30 16 #000000 0 "Full-wave rectifier using a transformer and 2 diodes.">
</Paintings>
