<Qucs Schematic 0.0.19>
<Properties>
  <View=0,0,800,800,1,0,0>
  <Grid=10,10,1>
  <DataSet=gilbert.dat>
  <DataDisplay=gilbert.dpl>
  <OpenDisplay=1>
  <Script=gilbert.m>
  <RunScript=0>
  <showFrame=0>
  <FrameText0=Title>
  <FrameText1=Drawn By:>
  <FrameText2=Date:>
  <FrameText3=Revision:>
</Properties>
<Symbol>
</Symbol>
<Components>
  <_BJT T2 1 240 170 8 -26 0 0 "npn" 0 "1e-16" 0 "1" 0 "1" 0 "0" 0 "0" 0 "0" 0 "0" 0 "0" 0 "1.5" 0 "0" 0 "2" 0 "200" 0 "1" 0 "0" 0 "0" 0 "0" 0 "0" 0 "0" 0 "0" 0 "0.75" 0 "0.33" 0 "0" 0 "0.75" 0 "0.33" 0 "1.0" 0 "0" 0 "0.75" 0 "0" 0 "0.5" 0 "0.0" 0 "0.0" 0 "0.0" 0 "0.0" 0 "0.0" 0 "26.85" 0 "0.0" 0 "1.0" 0 "1.0" 0 "0.0" 0 "1.0" 0 "1.0" 0 "0.0" 0 "0.0" 0 "3.0" 0 "1.11" 0 "26.85" 0 "1.0" 0>
  <_BJT T3 1 300 170 -22 -26 1 2 "npn" 0 "1e-16" 0 "1" 0 "1" 0 "0" 0 "0" 0 "0" 0 "0" 0 "0" 0 "1.5" 0 "0" 0 "2" 0 "200" 0 "1" 0 "0" 0 "0" 0 "0" 0 "0" 0 "0" 0 "0" 0 "0.75" 0 "0.33" 0 "0" 0 "0.75" 0 "0.33" 0 "1.0" 0 "0" 0 "0.75" 0 "0" 0 "0.5" 0 "0.0" 0 "0.0" 0 "0.0" 0 "0.0" 0 "0.0" 0 "26.85" 0 "0.0" 0 "1.0" 0 "1.0" 0 "0.0" 0 "1.0" 0 "1.0" 0 "0.0" 0 "0.0" 0 "3.0" 0 "1.11" 0 "26.85" 0 "1.0" 0>
  <_BJT T5 1 520 170 -22 -26 1 2 "npn" 0 "1e-16" 0 "1" 0 "1" 0 "0" 0 "0" 0 "0" 0 "0" 0 "0" 0 "1.5" 0 "0" 0 "2" 0 "200" 0 "1" 0 "0" 0 "0" 0 "0" 0 "0" 0 "0" 0 "0" 0 "0.75" 0 "0.33" 0 "0" 0 "0.75" 0 "0.33" 0 "1.0" 0 "0" 0 "0.75" 0 "0" 0 "0.5" 0 "0.0" 0 "0.0" 0 "0.0" 0 "0.0" 0 "0.0" 0 "26.85" 0 "0.0" 0 "1.0" 0 "1.0" 0 "0.0" 0 "1.0" 0 "1.0" 0 "0.0" 0 "0.0" 0 "3.0" 0 "1.11" 0 "26.85" 0 "1.0" 0>
  <_BJT T4 1 460 170 8 -26 0 0 "npn" 0 "1e-16" 0 "1" 0 "1" 0 "0" 0 "0" 0 "0" 0 "0" 0 "0" 0 "1.5" 0 "0" 0 "2" 0 "200" 0 "1" 0 "0" 0 "0" 0 "0" 0 "0" 0 "0" 0 "0" 0 "0.75" 0 "0.33" 0 "0" 0 "0.75" 0 "0.33" 0 "1.0" 0 "0" 0 "0.75" 0 "0" 0 "0.5" 0 "0.0" 0 "0.0" 0 "0.0" 0 "0.0" 0 "0.0" 0 "26.85" 0 "0.0" 0 "1.0" 0 "1.0" 0 "0.0" 0 "1.0" 0 "1.0" 0 "0.0" 0 "0.0" 0 "3.0" 0 "1.11" 0 "26.85" 0 "1.0" 0>
  <Iac LO 1 380 210 20 -26 0 1 "20 uA" 1 "1 MHz" 1 "0" 0 "0" 0>
  <R R2 1 520 70 15 -26 0 1 "100" 1 "26.85" 0 "0.0" 0 "0.0" 0 "26.85" 0 "european" 0>
  <R R1 1 240 70 15 -26 0 1 "100" 1 "26.85" 0 "0.0" 0 "0.0" 0 "26.85" 0 "european" 0>
  <R R3 1 380 350 -26 15 0 0 "50 Ohm" 1 "26.85" 0 "0.0" 0 "0.0" 0 "26.85" 0 "european" 0>
  <Vac RF 1 300 350 -26 18 0 0 "0.1 mV" 1 "100 kHz" 1 "0" 0 "0" 0>
  <C C3 1 460 350 -26 17 1 2 "1 uF" 1 "" 0 "neutral" 0>
  <GND * 1 380 490 0 0 0 0>
  <Idc I1 1 380 460 18 -26 1 3 "8 mA" 1>
  <R R6 1 380 70 15 -26 0 1 "100k" 1 "26.85" 0 "0.0" 0 "0.0" 0 "26.85" 0 "european" 0>
  <R R7 1 590 170 15 -26 0 1 "100k" 1 "26.85" 0 "0.0" 0 "0.0" 0 "26.85" 0 "european" 0>
  <GND * 1 630 100 0 0 0 0>
  <Vdc V1 1 630 70 18 -26 0 1 "10 V" 1>
  <GND * 1 630 330 0 0 0 0>
  <Vdc V2 1 630 300 18 -26 0 1 "10 V" 1>
  <Tr Tr1 1 140 160 37 -29 0 1 "1" 1>
  <GND * 1 170 190 0 0 0 0>
  <GND * 1 110 330 0 0 0 0>
  <R R5 1 110 300 15 -26 0 1 "200 Ohm" 1 "26.85" 0 "0.0" 0 "0.0" 0 "26.85" 0 "european" 0>
  <_BJT T1 1 240 350 -22 -26 1 2 "npn" 0 "1e-16" 0 "1" 0 "1" 0 "0" 0 "0" 0 "0" 0 "0" 0 "0" 0 "1.5" 0 "0" 0 "2" 0 "200" 0 "1" 0 "0" 0 "0" 0 "0" 0 "0" 0 "0" 0 "0" 0 "0.75" 0 "0.33" 0 "0" 0 "0.75" 0 "0.33" 0 "1.0" 0 "0" 0 "0.75" 0 "0" 0 "0.5" 0 "0.0" 0 "0.0" 0 "0.0" 0 "0.0" 0 "0.0" 0 "26.85" 0 "0.0" 0 "1.0" 0 "1.0" 0 "0.0" 0 "1.0" 0 "1.0" 0 "0.0" 0 "0.0" 0 "3.0" 0 "1.11" 0 "26.85" 0 "1.0" 0>
  <_BJT T6 1 520 350 8 -26 0 0 "npn" 0 "1e-16" 0 "1" 0 "1" 0 "0" 0 "0" 0 "0" 0 "0" 0 "0" 0 "1.5" 0 "0" 0 "2" 0 "200" 0 "1" 0 "0" 0 "0" 0 "0" 0 "0" 0 "0" 0 "0" 0 "0.75" 0 "0.33" 0 "0" 0 "0.75" 0 "0.33" 0 "1.0" 0 "0" 0 "0.75" 0 "0" 0 "0.5" 0 "0.0" 0 "0.0" 0 "0.0" 0 "0.0" 0 "0.0" 0 "26.85" 0 "0.0" 0 "1.0" 0 "1.0" 0 "0.0" 0 "1.0" 0 "1.0" 0 "0.0" 0 "0.0" 0 "3.0" 0 "1.11" 0 "26.85" 0 "1.0" 0>
  <R R8 1 490 300 -57 -26 0 3 "200k" 1 "26.85" 0 "0.0" 0 "0.0" 0 "26.85" 0 "european" 0>
  <R R9 1 270 300 15 -26 1 3 "200k" 1 "26.85" 0 "0.0" 0 "0.0" 0 "26.85" 0 "european" 0>
  <.TR TR1 1 120 380 0 67 0 0 "lin" 1 "0" 1 "10 us" 1 "200" 1 "Trapezoidal" 0 "2" 0 "1 ns" 0 "1e-16" 0 "150" 0 "0.001" 0 "1 pA" 0 "1 uV" 0 "26.85" 0 "1e-3" 0 "1e-6" 0 "1" 0 "CroutLU" 0 "no" 0 "yes" 0 "0" 0>
</Components>
<Wires>
  <210 170 210 240 "" 0 0 0 "">
  <210 240 380 240 "" 0 0 0 "">
  <240 110 240 140 "" 0 0 0 "">
  <330 170 380 170 "" 0 0 0 "">
  <300 120 520 120 "" 0 0 0 "">
  <300 120 300 140 "" 0 0 0 "">
  <240 200 300 200 "" 0 0 0 "">
  <550 170 550 240 "" 0 0 0 "">
  <520 120 520 140 "" 0 0 0 "">
  <460 110 460 140 "" 0 0 0 "">
  <240 110 460 110 "" 0 0 0 "">
  <460 200 520 200 "" 0 0 0 "">
  <380 240 550 240 "" 0 0 0 "">
  <380 170 430 170 "" 0 0 0 "">
  <380 170 380 180 "" 0 0 0 "">
  <380 100 380 170 "" 0 0 0 "">
  <520 100 520 120 "" 0 0 0 "">
  <240 40 380 40 "" 0 0 0 "">
  <240 100 240 110 "" 0 0 0 "">
  <520 40 590 40 "" 0 0 0 "">
  <240 430 380 430 "" 0 0 0 "">
  <240 380 240 430 "" 0 0 0 "">
  <520 380 520 430 "" 0 0 0 "">
  <330 350 350 350 "" 0 0 0 "">
  <410 350 430 350 "" 0 0 0 "">
  <490 330 490 350 "" 0 0 0 "">
  <270 270 490 270 "" 0 0 0 "">
  <270 330 270 350 "" 0 0 0 "">
  <380 430 520 430 "" 0 0 0 "">
  <520 200 520 320 "" 0 0 0 "">
  <240 200 240 320 "" 0 0 0 "">
  <380 40 520 40 "" 0 0 0 "">
  <590 200 590 240 "" 0 0 0 "">
  <550 240 590 240 "" 0 0 0 "">
  <590 40 590 140 "" 0 0 0 "">
  <590 40 630 40 "" 0 0 0 "">
  <170 120 300 120 "" 0 0 0 "">
  <170 120 170 130 "" 0 0 0 "">
  <110 110 240 110 "" 0 0 0 "">
  <110 110 110 130 "" 0 0 0 "">
  <110 190 110 270 "" 0 0 0 "">
  <490 270 630 270 "" 0 0 0 "">
  <110 270 110 270 "Output" 140 230 0 "">
</Wires>
<Diagrams>
</Diagrams>
<Paintings>
  <Text 430 470 16 #0000ff 0 "The famous gilbert cell mixer:\nAn active, double-balanced mixer.">
</Paintings>
