<Qucs Schematic 0.0.19>
<Properties>
  <View=-74,-4,1091,644,1,0,0>
  <Grid=10,10,1>
  <DataSet=LPF-Balun2.dat>
  <DataDisplay=LPF-Balun2.dpl>
  <OpenDisplay=1>
  <Script=LPF-Balun2.m>
  <RunScript=0>
  <showFrame=0>
  <FrameText0=Title>
  <FrameText1=Drawn By:>
  <FrameText2=Date:>
  <FrameText3=Revision:>
</Properties>
<Symbol>
</Symbol>
<Components>
  <L L1 1 510 90 -26 10 0 0 "1.2uH" 1 "" 0>
  <L L2 1 650 90 -26 10 0 0 "470nH" 1 "" 0>
  <C C1 1 440 170 17 -26 0 1 "270pF" 1 "" 0 "neutral" 0>
  <C C2 1 580 170 17 -26 0 1 "270pF" 1 "" 0 "neutral" 0>
  <L L3 1 360 90 -26 10 0 0 "470nH" 1 "" 0>
  <L L4 1 360 260 -26 10 0 0 "470nH" 1 "" 0>
  <L L5 1 510 260 -26 10 0 0 "1.2uH" 1 "" 0>
  <L L6 1 650 260 -26 10 0 0 "470nH" 1 "" 0>
  <GND * 1 130 270 0 0 0 0>
  <Pac P1 1 -20 190 18 -26 0 1 "1" 1 "100 Ohm" 1 "0 dBm" 0 "1 GHz" 0 "26.85" 0>
  <GND * 1 -20 240 0 0 0 0>
  <GND * 1 870 190 0 0 0 0>
  <Sub Balun1 1 160 150 -10 34 0 0 "IdealBalun.sch" 0>
  <Sub Balun2 1 820 150 -40 34 1 2 "IdealBalun.sch" 0>
  <GND * 1 80 210 0 0 0 0>
  <Vdc V1 1 80 160 18 -26 0 1 "1V" 1>
  <VProbe Pr1 1 920 130 28 -31 0 0>
  <GND * 1 930 170 0 0 0 0>
  <Pac P2 1 990 180 18 -26 0 1 "2" 1 "100 Ohm" 1 "0 dBm" 0 "1 GHz" 0 "26.85" 0>
  <GND * 1 990 250 0 0 1 2>
  <.SP SP1 1 20 350 0 67 0 0 "log" 1 "1MHz" 1 "100MHz" 1 "1001" 1 "no" 0 "1" 0 "2" 0 "no" 0 "no" 0>
  <Eqn Eqn1 1 200 370 -28 15 0 0 "dBS21=dB(S[2,1])" 1 "dBS11=dB(S[1,1])" 1 "yes" 0>
  <.DC DC1 1 600 350 0 41 0 0 "26.85" 0 "0.001" 0 "1 pA" 0 "1 uV" 0 "no" 0 "150" 0 "no" 0 "none" 0 "CroutLU" 0>
</Components>
<Wires>
  <440 90 440 140 "" 0 0 0 "">
  <580 90 580 140 "" 0 0 0 "">
  <440 90 480 90 "" 0 0 0 "">
  <540 90 580 90 "" 0 0 0 "">
  <580 90 620 90 "" 0 0 0 "">
  <440 200 440 260 "" 0 0 0 "">
  <390 90 440 90 "" 0 0 0 "">
  <390 260 440 260 "" 0 0 0 "">
  <580 200 580 260 "" 0 0 0 "">
  <440 260 480 260 "" 0 0 0 "">
  <540 260 580 260 "" 0 0 0 "">
  <580 260 620 260 "" 0 0 0 "">
  <220 90 330 90 "" 0 0 0 "">
  <220 260 330 260 "" 0 0 0 "">
  <-20 220 -20 240 "" 0 0 0 "">
  <-20 90 -20 160 "" 0 0 0 "">
  <-20 90 130 90 "" 0 0 0 "">
  <130 170 130 270 "" 0 0 0 "">
  <220 170 220 260 "" 0 0 0 "">
  <850 170 870 170 "" 0 0 0 "">
  <870 170 870 190 "" 0 0 0 "">
  <680 90 760 90 "" 0 0 0 "">
  <720 170 760 170 "" 0 0 0 "">
  <680 260 720 260 "" 0 0 0 "">
  <720 170 720 260 "" 0 0 0 "">
  <80 190 80 210 "" 0 0 0 "">
  <80 130 130 130 "" 0 0 0 "">
  <850 90 990 90 "" 0 0 0 "">
  <990 90 990 150 "" 0 0 0 "">
  <990 210 990 250 "" 0 0 0 "">
  <930 150 930 170 "" 0 0 0 "">
  <860 150 910 150 "" 0 0 0 "">
  <850 130 860 130 "" 0 0 0 "">
  <860 130 860 150 "" 0 0 0 "">
</Wires>
<Diagrams>
</Diagrams>
<Paintings>
  <Text 350 340 12 #000000 0 "Butterworth low-pass filter\n10MHz cutoff, PI-type,\nimpedance matching 100 Ohm">
</Paintings>
