<Qucs Schematic 0.0.19>
<Properties>
  <View=0,0,800,800,1,0,0>
  <Grid=10,10,1>
  <DataSet=rf_osci.dat>
  <DataDisplay=rf_osci.dpl>
  <OpenDisplay=1>
  <Script=rf_osci.m>
  <RunScript=0>
  <showFrame=0>
  <FrameText0=Title>
  <FrameText1=Drawn By:>
  <FrameText2=Date:>
  <FrameText3=Revision:>
</Properties>
<Symbol>
</Symbol>
<Components>
  <C C1 1 480 150 17 -26 0 1 "10 nF" 1 "" 0 "neutral" 0>
  <GND * 1 360 380 0 0 0 0>
  <L L1 1 400 150 10 -26 0 1 "0.5 mH" 1 "" 0>
  <R R1 1 360 350 15 -26 0 1 "50 kOhm" 1 "26.85" 0 "0.0" 0 "0.0" 0 "26.85" 0 "european" 0>
  <_BJT T1 1 260 250 -47 -26 1 2 "npn" 0 "1e-16" 0 "1" 0 "1" 0 "0" 0 "0" 0 "0" 0 "0" 0 "0" 0 "1.5" 0 "0" 0 "2" 0 "200" 1 "1" 0 "0" 0 "0" 0 "0" 0 "0" 0 "0" 0 "0" 0 "0.75" 0 "0.33" 0 "0" 0 "0.75" 0 "0.33" 0 "1.0" 0 "0" 0 "0.75" 0 "0" 0 "0.5" 0 "0.0" 0 "0.0" 0 "0.0" 0 "0.0" 0 "0.0" 0 "26.85" 0 "0.0" 0 "1.0" 0 "1.0" 0 "0.0" 0 "1.0" 0 "1.0" 0 "0.0" 0 "0.0" 0 "3.0" 0 "1.11" 0 "26.85" 0 "1.0" 0>
  <_BJT T2 1 480 250 -47 -26 1 2 "npn" 0 "1e-16" 0 "1" 0 "1" 0 "0" 0 "0" 0 "0" 0 "0" 0 "0" 0 "1.5" 0 "0" 0 "2" 0 "200" 1 "1" 0 "0" 0 "0" 0 "0" 0 "0" 0 "0" 0 "0" 0 "0.75" 0 "0.33" 0 "0" 0 "0.75" 0 "0.33" 0 "1.0" 0 "0" 0 "0.75" 0 "0" 0 "0.5" 0 "0.0" 0 "0.0" 0 "0.0" 0 "0.0" 0 "0.0" 0 "26.85" 0 "0.0" 0 "1.0" 0 "1.0" 0 "0.0" 0 "1.0" 0 "1.0" 0 "0.0" 0 "0.0" 0 "3.0" 0 "1.11" 0 "26.85" 0 "1.0" 0>
  <GND * 1 140 220 0 0 0 0>
  <Vdc V1 1 140 190 18 -26 0 1 "10 V" 1>
  <R R2 1 320 150 15 -26 0 1 "200k" 1 "26.85" 0 "0.0" 0 "0.0" 0 "26.85" 0 "european" 0>
  <.TR TR1 1 180 330 -42 67 0 0 "lin" 1 "0" 1 "0.4 ms" 1 "400" 0 "Trapezoidal" 0 "2" 0 "1 ns" 0 "1e-16" 0 "150" 0 "0.001" 0 "1 pA" 0 "1 uV" 0 "26.85" 0 "1e-3" 0 "1e-6" 0 "1" 0 "CroutLU" 0 "no" 0 "yes" 0 "0" 0>
</Components>
<Wires>
  <320 180 400 180 "" 0 0 0 "">
  <480 180 480 220 "" 0 0 0 "">
  <260 120 320 120 "" 0 0 0 "">
  <260 120 260 220 "" 0 0 0 "">
  <320 180 320 250 "" 0 0 0 "">
  <290 250 320 250 "" 0 0 0 "">
  <260 320 360 320 "" 0 0 0 "">
  <260 280 260 320 "" 0 0 0 "">
  <480 280 480 320 "" 0 0 0 "">
  <580 120 580 250 "" 0 0 0 "">
  <510 250 580 250 "" 0 0 0 "">
  <480 120 580 120 "" 0 0 0 "">
  <400 180 480 180 "" 0 0 0 "">
  <400 120 480 120 "" 0 0 0 "">
  <360 320 480 320 "" 0 0 0 "">
  <140 120 140 160 "" 0 0 0 "">
  <140 120 260 120 "" 0 0 0 "">
  <320 120 400 120 "" 0 0 0 "">
  <480 220 480 220 "Output" 510 190 0 "">
</Wires>
<Diagrams>
</Diagrams>
<Paintings>
  <Text 330 70 16 #000000 0 "Peltz oscillator">
</Paintings>
