<Qucs Schematic 0.0.19>
<Properties>
  <View=-4,-185,978,435,1,0,0>
  <Grid=10,10,1>
  <DataSet=sawtooth-discreet.dat>
  <DataDisplay=sawtooth-discreet.dpl>
  <OpenDisplay=1>
  <Script=sawtooth-discreet.m>
  <RunScript=0>
  <showFrame=0>
  <FrameText0=Title>
  <FrameText1=Drawn By:>
  <FrameText2=Date:>
  <FrameText3=Revision:>
</Properties>
<Symbol>
  <.PortSym 40 20 1 0>
</Symbol>
<Components>
  <_BJT T3 1 320 70 -81 -53 0 2 "pnp" 1 "1e-16" 1 "1" 1 "1" 0 "0" 0 "0" 0 "0" 1 "0" 0 "0" 0 "1.5" 0 "0" 0 "2" 0 "100" 1 "1" 0 "0" 0 "0" 0 "0" 0 "0" 0 "0" 0 "0" 0 "0.75" 0 "0.33" 0 "0" 0 "0.75" 0 "0.33" 0 "1.0" 0 "0" 0 "0.75" 0 "0" 0 "0.5" 0 "0.0" 0 "0.0" 0 "0.0" 0 "0.0" 0 "0.0" 0 "26.85" 0 "0.0" 0 "1.0" 0 "1.0" 0 "0.0" 0 "1.0" 0 "1.0" 0 "0.0" 0 "0.0" 0 "3.0" 0 "1.11" 0 "26.85" 0 "1.0" 0>
  <Vdc V1 1 50 -60 18 -26 0 1 "15 V" 1>
  <GND * 1 50 -30 0 0 0 0>
  <R R1 1 130 10 15 -26 0 1 "220 Ohm" 1 "26.85" 0 "0.0" 0 "0.0" 0 "26.85" 0 "european" 0>
  <GND * 1 190 340 0 0 0 0>
  <GND * 1 320 340 0 0 0 0>
  <GND * 1 370 340 0 0 0 0>
  <Port P1 1 470 140 4 -50 0 2 "1" 1 "analog" 0>
  <R R3 1 370 260 12 -58 0 1 "1 kOhm" 1 "26.85" 0 "0.0" 0 "0.0" 0 "26.85" 0 "european" 0>
  <_BJT BC560AP_1 1 240 190 -37 26 1 0 "pnp" 0 "1.15e-14" 0 "0.9872" 0 "0.996" 0 "0.1" 0 "0.012" 0 "84.56" 0 "8.15" 0 "5e-14" 0 "1.4" 0 "1.43e-14" 0 "1.1" 0 "330" 0 "13" 0 "0" 0 "0" 0 "0.95" 0 "0.4" 0 "0.2" 0 "1.6e-11" 0 "0.75" 0 "0.33" 0 "1.05e-11" 0 "0.565" 0 "0.415" 0 "1" 0 "0" 0 "0.75" 0 "0" 0 "0.5" 0 "4.93e-10" 0 "0" 0 "0" 0 "0" 0 "7.355e-08" 0 "26.85" 0 "0" 0 "1" 0 "1" 0 "0" 0 "1" 0 "1" 0 "0" 0 "0" 0 "3" 0 "1.11" 0 "26.85" 0 "1" 0>
  <_BJT BC548BP_1 1 190 260 9 22 1 2 "npn" 0 "1.8e-14" 0 "0.9955" 0 "1.005" 0 "0.14" 0 "0.03" 0 "80" 0 "12.5" 0 "5e-14" 0 "1.46" 0 "1.72e-13" 0 "1.27" 0 "400" 0 "35.5" 0 "0" 0 "0" 0 "0.25" 0 "0.6" 0 "0.56" 0 "1.3e-11" 0 "0.75" 0 "0.33" 0 "4e-12" 0 "0.54" 0 "0.33" 0 "1" 0 "0" 0 "0.75" 0 "0" 0 "0.5" 0 "6.4e-10" 0 "0" 0 "0" 0 "0" 0 "5.072e-08" 0 "26.85" 0 "0" 0 "1" 0 "1" 0 "0" 0 "1" 0 "1" 0 "0" 0 "0" 0 "3" 0 "1.11" 0 "26.85" 0 "1" 0>
  <Lib D8 1 130 260 -18 14 0 3 "Z-Diodes" 0 "1N4728A" 0>
  <GND * 1 130 340 0 0 0 0>
  <Diode D2 1 370 -50 18 -115 0 1 "1e-15 A" 1 "1" 1 "10 fF" 1 "0.5" 1 "0.7" 1 "0.5" 0 "0.0 fF" 0 "0.0" 0 "2.0" 0 "0.0 Ohm" 0 "0.0 ps" 0 "26.85" 0 "0.0" 0 "1.0" 0 "1.0" 0 "0" 0 "1 mA" 0 "3.0" 0 "1.11" 0 "0.0" 0 "0.0" 0 "0.0" 0 "0.0" 0 "0.0" 0 "0.0" 0 "26.85" 0 "1.0" 0 "normal" 0 "normal" 0>
  <Diode D9 1 370 10 18 -44 0 1 "1e-15 A" 1 "1" 1 "10 fF" 1 "0.5" 1 "0.7" 1 "0.5" 0 "0.0 fF" 0 "0.0" 0 "2.0" 0 "0.0 Ohm" 0 "0.0 ps" 0 "26.85" 0 "0.0" 0 "1.0" 0 "1.0" 0 "0" 0 "1 mA" 0 "3.0" 0 "1.11" 0 "0.0" 0 "0.0" 0 "0.0" 0 "0.0" 0 "0.0" 0 "0.0" 0 "26.85" 0 "1.0" 0 "normal" 0 "normal" 0>
  <R R2 1 320 -30 -98 -47 0 1 "6.8k" 1 "26.85" 0 "0.0" 0 "0.0" 0 "26.85" 0 "european" 0>
  <C C1 1 320 270 7 20 0 1 "680 pF" 1 "" 0 "neutral" 0>
  <.TR TR1 1 490 -100 -1 67 0 0 "lin" 1 "0" 1 "100 us" 1 "501" 1 "Trapezoidal" 0 "2" 0 "0" 0 "1e-16" 0 "150" 0 "0.001" 0 "1 pA" 0 "1 uV" 0 "26.85" 0 "1e-3" 0 "1e-6" 0 "1" 0 "CroutLU" 0 "no" 0 "no" 0 "0" 0>
</Components>
<Wires>
  <320 0 320 40 "" 0 0 0 "">
  <350 70 370 70 "" 0 0 0 "">
  <220 260 240 260 "" 0 0 0 "">
  <240 220 240 260 "" 0 0 0 "">
  <190 190 190 230 "" 0 0 0 "">
  <190 190 210 190 "" 0 0 0 "">
  <130 190 190 190 "" 0 0 0 "">
  <320 -110 320 -60 "" 0 0 0 "">
  <50 -110 50 -90 "" 0 0 0 "">
  <50 -110 130 -110 "" 0 0 0 "">
  <130 40 130 190 "" 0 0 0 "">
  <130 -110 320 -110 "" 0 0 0 "">
  <130 -110 130 -20 "" 0 0 0 "">
  <190 290 190 340 "" 0 0 0 "">
  <370 70 370 230 "" 0 0 0 "">
  <370 290 370 340 "" 0 0 0 "">
  <130 190 130 230 "" 0 0 0 "">
  <130 290 130 340 "" 0 0 0 "">
  <320 -110 370 -110 "" 0 0 0 "">
  <370 -110 370 -80 "" 0 0 0 "">
  <370 40 370 70 "" 0 0 0 "">
  <320 140 470 140 "" 0 0 0 "">
  <320 300 320 340 "" 0 0 0 "">
  <320 100 320 140 "" 0 0 0 "">
  <240 140 240 160 "" 0 0 0 "">
  <240 140 320 140 "" 0 0 0 "">
  <320 140 320 240 "" 0 0 0 "">
  <370 70 370 70 "UCON" 380 90 0 "">
  <130 190 130 190 "UTOP" 150 140 0 "">
  <320 140 320 140 "OUT" 350 110 0 "">
</Wires>
<Diagrams>
</Diagrams>
<Paintings>
</Paintings>
