<Qucs Schematic 0.0.19>
<Properties>
  <View=0,0,800,800,1,0,0>
  <Grid=10,10,1>
  <DataSet=sawtooth-1.dat>
  <DataDisplay=sawtooth-1.dpl>
  <OpenDisplay=1>
  <Script=sawtooth-1.m>
  <RunScript=0>
  <showFrame=0>
  <FrameText0=Titel>
  <FrameText1=Gezeichnet von:>
  <FrameText2=Datum:>
  <FrameText3=Revision:>
</Properties>
<Symbol>
</Symbol>
<Components>
  <Lib D1 1 80 290 -32 -31 0 3 "Z-Diodes" 0 "1N4732A" 0>
  <_BJT T_2DC4617R1 1 200 290 -87 -10 1 2 "npn" 0 "15.5f" 0 "1" 0 "1" 0 "54.7m" 0 "0.135" 0 "127" 0 "28" 0 "3.9p" 0 "2" 0 "0" 0 "2" 0 "524" 0 "4" 0 "0" 0 "0" 0 "0.116" 0 "0.29" 0 "1.16" 0 "22.7p" 0 "1.1" 0 "0.5" 0 "7.34p" 0 "0.3" 0 "0.3" 0 "1" 0 "0" 0 "0.75" 0 "0" 0 "0.5" 0 "698p" 0 "0" 0 "0" 0 "0" 0 "121n" 0 "26.85" 0 "0" 0 "1" 0 "1" 0 "0" 0 "1" 0 "1" 0 "0" 0 "0.0" 0 "3.0" 0 "1.11" 0 "26.85" 0 "1.0" 0>
  <_BJT T_2DA1774R1 1 260 230 -101 -42 1 0 "pnp" 0 "15.2f" 0 "1" 0 "1" 0 "54.7m" 0 "0.135" 0 "127" 0 "24" 0 "3.88p" 0 "2" 0 "0" 0 "2" 0 "523" 0 "4" 0 "0" 0 "0" 0 "0.284" 0 "0.710" 0 "2.84" 0 "42.6p" 0 "1.1" 0 "0.5" 0 "13.7p" 0 "0.3" 0 "0.3" 0 "1" 0 "0" 0 "0.75" 0 "0" 0 "0.5" 0 "453p" 0 "0" 0 "0" 0 "0" 0 "96.4n" 0 "26.85" 0 "0" 0 "1" 0 "1" 0 "0" 0 "1" 0 "1" 0 "0" 0 "0.0" 0 "3.0" 0 "1.11" 0 "26.85" 0 "1.0" 0>
  <GND * 1 200 320 0 0 0 0>
  <GND * 1 80 320 0 0 0 0>
  <C C1 1 320 270 17 -26 0 1 "1n" 1 "" 0 "neutral" 0>
  <GND * 1 320 320 0 0 0 0>
  <Vdc V1 1 420 130 18 -26 0 1 "10" 1>
  <GND * 1 420 160 0 0 0 0>
  <R R1 1 320 130 15 -26 0 1 "400" 1 "26.85" 0 "0.0" 0 "0.0" 0 "26.85" 0 "european" 0>
  <R R2 1 80 130 15 -26 0 1 "12" 1 "26.85" 0 "0.0" 0 "0.0" 0 "26.85" 0 "european" 0>
  <.TR TR1 1 500 80 0 67 0 0 "lin" 1 "0" 1 "2u" 1 "501" 1 "Trapezoidal" 0 "2" 0 "1 ns" 0 "1e-16" 0 "150" 0 "0.001" 0 "1 pA" 0 "1 uV" 0 "26.85" 0 "1e-3" 0 "1e-6" 0 "1" 0 "CroutLU" 0 "no" 0 "yes" 0 "0" 0>
</Components>
<Wires>
  <80 230 80 260 "" 0 0 0 "">
  <80 230 200 230 "" 0 0 0 "">
  <200 230 230 230 "" 0 0 0 "">
  <200 230 200 260 "" 0 0 0 "">
  <260 260 260 290 "" 0 0 0 "">
  <230 290 260 290 "" 0 0 0 "">
  <320 300 320 320 "" 0 0 0 "">
  <80 80 80 100 "" 0 0 0 "">
  <420 80 420 100 "" 0 0 0 "">
  <320 160 320 180 "" 0 0 0 "">
  <260 180 320 180 "" 0 0 0 "">
  <80 80 320 80 "" 0 0 0 "">
  <320 80 420 80 "" 0 0 0 "">
  <320 80 320 100 "" 0 0 0 "">
  <260 180 260 200 "" 0 0 0 "">
  <320 180 320 240 "" 0 0 0 "">
  <80 160 80 230 "" 0 0 0 "">
  <320 180 320 180 "Out" 360 200 0 "">
</Wires>
<Diagrams>
</Diagrams>
<Paintings>
  <Text 80 40 14 #000000 0 "Saw-Tooth Generator">
</Paintings>
