<Qucs Schematic 0.0.19>
<Properties>
  <View=0,0,990,800,1,0,0>
  <Grid=10,10,1>
  <DataSet=sawtooth-2.dat>
  <DataDisplay=sawtooth-2.dpl>
  <OpenDisplay=1>
  <Script=sawtooth-2.m>
  <RunScript=0>
  <showFrame=0>
  <FrameText0=Titel>
  <FrameText1=Gezeichnet von:>
  <FrameText2=Datum:>
  <FrameText3=Revision:>
</Properties>
<Symbol>
</Symbol>
<Components>
  <OpAmp OP1 1 140 130 -26 -80 1 0 "1e4" 1 "15 V" 0>
  <OpAmp OP2 1 470 150 0 -59 1 0 "1e4" 1 "15 V" 0>
  <GND * 1 30 140 0 0 0 0>
  <Vdc V1 1 380 220 18 -26 0 1 "-14.5 V" 1>
  <GND * 1 380 250 0 0 0 0>
  <R R1 1 150 320 -26 15 0 0 "100 kOhm" 1 "26.85" 0 "0.0" 0 "0.0" 0 "26.85" 0 "european" 0>
  <R R2 1 150 230 -26 15 0 0 "120 kOhm" 1 "26.85" 0 "0.0" 0 "0.0" 0 "26.85" 0 "european" 0>
  <C C1 1 470 60 -25 -56 0 0 "1 pF" 1 "" 0 "neutral" 0>
  <R R3 1 290 130 -21 -46 0 0 "43 kOhm" 1 "26.85" 0 "0.0" 0 "0.0" 0 "26.85" 0 "european" 0>
  <OpAmp OP3 1 910 170 -26 42 0 0 "1e6" 1 "15 V" 0>
  <R R4 1 920 270 -26 15 0 0 "100 kOhm" 1 "26.85" 0 "0.0" 0 "0.0" 0 "26.85" 0 "european" 0>
  <Vdc V2 1 640 280 15 16 0 1 "0.6 V" 1>
  <GND * 1 640 340 0 0 0 0>
  <R R5 1 690 220 -26 15 0 0 "100 kOhm" 1 "26.85" 0 "0.0" 0 "0.0" 0 "26.85" 0 "european" 0>
  <GND * 1 820 340 0 0 0 0>
  <R R6 1 820 230 -38 41 0 1 "47.4 kOhm" 1 "26.85" 0 "0.0" 0 "0.0" 0 "26.85" 0 "european" 0>
  <R R7 1 690 150 -26 15 0 0 "924 kOhm" 1 "26.85" 0 "0.0" 0 "0.0" 0 "26.85" 0 "european" 0>
  <.TR TR1 1 300 350 0 67 0 0 "lin" 1 "0" 1 "10u" 1 "1001" 0 "Gear" 0 "1" 0 "1 ns" 0 "1e-16" 0 "150" 0 "0.01" 0 "100 pA" 0 "100 uV" 0 "26.85" 0 "1e-2" 0 "1e-5" 0 "1" 0 "CroutLU" 0 "yes" 0 "no" 0 "0" 0>
</Components>
<Wires>
  <180 130 210 130 "" 0 0 0 "">
  <80 150 80 230 "" 0 0 0 "">
  <80 150 110 150 "" 0 0 0 "">
  <80 230 120 230 "" 0 0 0 "">
  <80 320 120 320 "" 0 0 0 "">
  <80 230 80 320 "" 0 0 0 "">
  <180 320 550 320 "" 0 0 0 "">
  <550 150 550 320 "" 0 0 0 "">
  <210 130 210 230 "" 0 0 0 "">
  <180 230 210 230 "" 0 0 0 "">
  <390 60 390 130 "" 0 0 0 "">
  <390 130 440 130 "" 0 0 0 "">
  <510 150 550 150 "" 0 0 0 "">
  <390 60 440 60 "" 0 0 0 "">
  <500 60 550 60 "" 0 0 0 "">
  <550 60 550 150 "" 0 0 0 "">
  <30 110 30 140 "" 0 0 0 "">
  <30 110 110 110 "" 0 0 0 "">
  <380 170 440 170 "" 0 0 0 "">
  <380 170 380 190 "" 0 0 0 "">
  <320 130 390 130 "" 0 0 0 "">
  <210 130 260 130 "" 0 0 0 "">
  <870 190 870 270 "" 0 0 0 "">
  <870 190 880 190 "" 0 0 0 "">
  <870 270 890 270 "" 0 0 0 "">
  <950 170 970 170 "OUT" 950 130 20 "">
  <970 170 970 270 "" 0 0 0 "">
  <950 270 970 270 "" 0 0 0 "">
  <550 150 660 150 "" 0 0 0 "">
  <750 150 750 220 "" 0 0 0 "">
  <720 220 750 220 "" 0 0 0 "">
  <720 150 750 150 "" 0 0 0 "">
  <640 310 640 340 "" 0 0 0 "">
  <640 220 640 250 "" 0 0 0 "">
  <640 220 660 220 "" 0 0 0 "">
  <750 150 820 150 "" 0 0 0 "">
  <820 150 880 150 "" 0 0 0 "">
  <820 150 820 200 "" 0 0 0 "">
  <820 260 820 340 "" 0 0 0 "">
  <210 130 210 130 "TOUT" 190 90 0 "15 V">
  <550 150 550 150 "TOUT2" 570 110 0 "0">
</Wires>
<Diagrams>
</Diagrams>
<Paintings>
  <Text 590 390 14 #000000 0 "Saw-Tooth Generator">
</Paintings>
