<Qucs Schematic 0.0.19>
<Properties>
  <View=-67,12,623,540,1,0,0>
  <Grid=10,10,1>
  <DataSet=singleOPV.dat>
  <DataDisplay=singleOPV.dpl>
  <OpenDisplay=1>
  <Script=singleOPV.m>
  <RunScript=0>
  <showFrame=0>
  <FrameText0=Title>
  <FrameText1=Drawn By:>
  <FrameText2=Date:>
  <FrameText3=Revision:>
</Properties>
<Symbol>
  <Line -20 40 60 -40 #000080 2 1>
  <Line -40 20 20 0 #000080 2 1>
  <.PortSym -40 20 1 0>
  <Line -40 -20 20 0 #000080 2 1>
  <.PortSym -40 -20 2 0>
  <Line -15 -20 10 0 #ff0000 0 1>
  <Line -10 -25 0 10 #ff0000 0 1>
  <Line -15 20 10 0 #000000 2 1>
  <Line -20 -40 0 80 #000080 2 1>
  <Line -20 -40 60 40 #000080 2 1>
  <Line 40 0 20 0 #000080 2 1>
  <.PortSym 60 0 5 0>
  <Line 10 50 0 -30 #000080 2 1>
  <.PortSym 10 50 4 0>
  <Line 10 -20 0 -30 #000080 2 1>
  <.PortSym 10 -50 3 0>
  <.ID 25 -51 OPV>
</Symbol>
<Components>
  <MOSFET T3 1 310 230 -66 -48 1 2 "nfet" 0 "1.0 V" 0 "2e-5" 0 "0.0" 0 "0.6 V" 0 "0.0" 0 "0.0 Ohm" 0 "0.0 Ohm" 0 "0.0 Ohm" 0 "1e-14 A" 0 "1.0" 0 "120 um" 1 "0.8 um" 1 "0.0" 0 "0.1 um" 0 "0.0" 0 "0.0" 0 "0.0" 0 "0.0 F" 0 "0.0 F" 0 "0.8 V" 0 "0.5" 0 "0.5" 0 "0.0" 0 "0.33" 0 "0.0 ps" 0 "0.0" 0 "0.0" 0 "1" 0 "600.0" 0 "0.0" 0 "1" 0 "1" 0 "0.0" 0 "0.0" 0 "0.0" 0 "0.0" 0 "0.0 m" 0 "0.0 m" 0 "0.0" 0 "1.0" 0 "1.0" 0 "26.85" 0 "26.85" 0>
  <MOSFET T4 1 170 230 9 -48 0 0 "nfet" 0 "1.0 V" 0 "2e-5" 0 "0.0" 0 "0.6 V" 0 "0.0" 0 "0.0 Ohm" 0 "0.0 Ohm" 0 "0.0 Ohm" 0 "1e-14 A" 0 "1.0" 0 "120 um" 1 "0.8 um" 1 "0.0" 0 "0.1 um" 0 "0.0" 0 "0.0" 0 "0.0" 0 "0.0 F" 0 "0.0 F" 0 "0.8 V" 0 "0.5" 0 "0.5" 0 "0.0" 0 "0.33" 0 "0.0 ps" 0 "0.0" 0 "0.0" 0 "1" 0 "600.0" 0 "0.0" 0 "1" 0 "1" 0 "0.0" 0 "0.0" 0 "0.0" 0 "0.0" 0 "0.0 m" 0 "0.0 m" 0 "0.0" 0 "1.0" 0 "1.0" 0 "26.85" 0 "26.85" 0>
  <_MOSFET T6 1 130 350 -60 -26 1 2 "nfet" 0 "1.0 V" 0 "2e-5" 0 "0.0" 0 "0.6 V" 0 "0.0" 0 "0.0 Ohm" 0 "0.0 Ohm" 0 "0.0 Ohm" 0 "1e-14 A" 0 "1.0" 0 "15 um" 1 "5 um" 1 "0.0" 0 "0.1 um" 0 "0.0" 0 "0.0" 0 "0.0" 0 "0.0 F" 0 "0.0 F" 0 "0.8 V" 0 "0.5" 0 "0.5" 0 "0.0" 0 "0.33" 0 "0.0 ps" 0 "0.0" 0 "0.0" 0 "1" 0 "600.0" 0 "0.0" 0 "1" 0 "1" 0 "0.0" 0 "0.0" 0 "0.0" 0 "0.0" 0 "0.0 m" 0 "0.0 m" 0 "0.0" 0 "1.0" 0 "1.0" 0 "26.85" 0 "26.85" 0>
  <_MOSFET T5 1 240 350 8 -26 0 0 "nfet" 0 "1.0 V" 0 "2e-5" 0 "0.0" 0 "0.6 V" 0 "0.0" 0 "0.0 Ohm" 0 "0.0 Ohm" 0 "0.0 Ohm" 0 "1e-14 A" 0 "1.0" 0 "15 um" 1 "5 um" 1 "0.0" 0 "0.1 um" 0 "0.0" 0 "0.0" 0 "0.0" 0 "0.0 F" 0 "0.0 F" 0 "0.8 V" 0 "0.5" 0 "0.5" 0 "0.0" 0 "0.33" 0 "0.0 ps" 0 "0.0" 0 "0.0" 0 "1" 0 "600.0" 0 "0.0" 0 "1" 0 "1" 0 "0.0" 0 "0.0" 0 "0.0" 0 "0.0" 0 "0.0 m" 0 "0.0 m" 0 "0.0" 0 "1.0" 0 "1.0" 0 "26.85" 0 "26.85" 0>
  <_MOSFET T8 1 500 350 8 -26 0 0 "nfet" 0 "1.0 V" 0 "2e-5" 0 "0.0" 0 "0.6 V" 0 "0.0" 0 "0.0 Ohm" 0 "0.0 Ohm" 0 "0.0 Ohm" 0 "1e-14 A" 0 "1.0" 0 "60 um" 1 "5 um" 1 "0.0" 0 "0.1 um" 0 "0.0" 0 "0.0" 0 "0.0" 0 "0.0 F" 0 "0.0 F" 0 "0.8 V" 0 "0.5" 0 "0.5" 0 "0.0" 0 "0.33" 0 "0.0 ps" 0 "0.0" 0 "0.0" 0 "1" 0 "600.0" 0 "0.0" 0 "1" 0 "1" 0 "0.0" 0 "0.0" 0 "0.0" 0 "0.0" 0 "0.0 m" 0 "0.0 m" 0 "0.0" 0 "1.0" 0 "1.0" 0 "26.85" 0 "26.85" 0>
  <R R1 1 410 160 -26 15 0 0 "4k" 1 "26.85" 0 "0.0" 0 "0.0" 0 "26.85" 0 "european" 0>
  <C C1 1 470 160 -26 17 0 0 "4p" 1 "" 0 "neutral" 0>
  <_MOSFET T1 1 170 100 -67 -26 0 2 "pfet" 0 "-1.0 V" 0 "2e-5" 0 "0.0" 0 "0.6 V" 0 "0.0" 0 "0.0 Ohm" 0 "0.0 Ohm" 0 "0.0 Ohm" 0 "1e-14 A" 0 "1.0" 0 "200 um" 1 "5 um" 1 "0.0" 0 "0.1 um" 0 "0.0" 0 "0.0" 0 "0.0" 0 "0.0 F" 0 "0.0 F" 0 "0.8 V" 0 "0.5" 0 "0.5" 0 "0.0" 0 "0.33" 0 "0.0 ps" 0 "0.0" 0 "0.0" 0 "1" 0 "600.0" 0 "0.0" 0 "1" 0 "1" 0 "0.0" 0 "0.0" 0 "0.0" 0 "0.0" 0 "0.0 m" 0 "0.0 m" 0 "0.0" 0 "1.0" 0 "1.0" 0 "26.85" 0 "26.85" 0>
  <_MOSFET T2 1 310 100 8 -26 1 0 "pfet" 0 "-1.0 V" 0 "2e-5" 0 "0.0" 0 "0.6 V" 0 "0.0" 0 "0.0 Ohm" 0 "0.0 Ohm" 0 "0.0 Ohm" 0 "1e-14 A" 0 "1.0" 0 "200 um" 1 "5 um" 1 "0.0" 0 "0.1 um" 0 "0.0" 0 "0.0" 0 "0.0" 0 "0.0 F" 0 "0.0 F" 0 "0.8 V" 0 "0.5" 0 "0.5" 0 "0.0" 0 "0.33" 0 "0.0 ps" 0 "0.0" 0 "0.0" 0 "1" 0 "600.0" 0 "0.0" 0 "1" 0 "1" 0 "0.0" 0 "0.0" 0 "0.0" 0 "0.0" 0 "0.0 m" 0 "0.0 m" 0 "0.0" 0 "1.0" 0 "1.0" 0 "26.85" 0 "26.85" 0>
  <_MOSFET T7 1 500 100 8 -26 1 0 "pfet" 0 "-1.0 V" 0 "2e-5" 0 "0.0" 0 "0.6 V" 0 "0.0" 0 "0.0 Ohm" 0 "0.0 Ohm" 0 "0.0 Ohm" 0 "1e-14 A" 0 "1.0" 0 "80 um" 1 "1.2 um" 1 "0.0" 0 "0.1 um" 0 "0.0" 0 "0.0" 0 "0.0" 0 "0.0 F" 0 "0.0 F" 0 "0.8 V" 0 "0.5" 0 "0.5" 0 "0.0" 0 "0.33" 0 "0.0 ps" 0 "0.0" 0 "0.0" 0 "1" 0 "600.0" 0 "0.0" 0 "1" 0 "1" 0 "0.0" 0 "0.0" 0 "0.0" 0 "0.0" 0 "0.0 m" 0 "0.0 m" 0 "0.0" 0 "1.0" 0 "1.0" 0 "26.85" 0 "26.85" 0>
  <Port P3 1 50 60 -23 12 0 0 "3" 1 "analog" 0>
  <Port P4 1 50 400 -23 12 0 0 "4" 1 "analog" 0>
  <Port P6 1 540 230 4 -40 0 2 "5" 1 "analog" 0>
  <Port P1 1 50 230 -23 12 0 0 "1" 1 "analog" 0>
  <Port P2 1 50 170 -23 12 0 0 "2" 1 "analog" 0>
  <Idc I1 1 90 270 18 -26 1 3 "5 uA" 1>
</Components>
<Wires>
  <200 100 210 100 "" 0 0 0 "">
  <170 130 170 140 "" 0 0 0 "">
  <310 130 310 160 "" 0 0 0 "">
  <190 230 270 230 "" 0 0 0 "">
  <170 260 170 280 "" 0 0 0 "">
  <310 260 310 280 "" 0 0 0 "">
  <170 280 240 280 "" 0 0 0 "">
  <160 350 180 350 "" 0 0 0 "">
  <240 280 310 280 "" 0 0 0 "">
  <240 280 240 320 "" 0 0 0 "">
  <130 380 130 400 "" 0 0 0 "">
  <240 380 240 400 "" 0 0 0 "">
  <130 400 240 400 "" 0 0 0 "">
  <170 60 170 70 "" 0 0 0 "">
  <170 60 310 60 "" 0 0 0 "">
  <310 60 310 70 "" 0 0 0 "">
  <130 300 130 320 "" 0 0 0 "">
  <180 350 210 350 "" 0 0 0 "">
  <180 300 180 350 "" 0 0 0 "">
  <130 300 180 300 "" 0 0 0 "">
  <440 300 440 350 "" 0 0 0 "">
  <180 300 440 300 "" 0 0 0 "">
  <440 350 470 350 "" 0 0 0 "">
  <500 380 500 400 "" 0 0 0 "">
  <240 400 270 400 "" 0 0 0 "">
  <340 230 360 230 "" 0 0 0 "">
  <310 160 310 200 "" 0 0 0 "">
  <310 160 380 160 "" 0 0 0 "">
  <500 230 500 320 "" 0 0 0 "">
  <500 230 540 230 "" 0 0 0 "">
  <270 230 290 230 "" 0 0 0 "">
  <270 400 500 400 "" 0 0 0 "">
  <270 230 270 400 "" 0 0 0 "">
  <170 140 170 200 "" 0 0 0 "">
  <170 140 210 140 "" 0 0 0 "">
  <210 100 280 100 "" 0 0 0 "">
  <210 100 210 140 "" 0 0 0 "">
  <500 160 500 230 "" 0 0 0 "">
  <380 100 470 100 "" 0 0 0 "">
  <380 100 380 160 "" 0 0 0 "">
  <500 130 500 160 "" 0 0 0 "">
  <500 60 500 70 "" 0 0 0 "">
  <310 60 500 60 "" 0 0 0 "">
  <90 300 130 300 "" 0 0 0 "">
  <90 60 170 60 "" 0 0 0 "">
  <90 60 90 240 "" 0 0 0 "">
  <50 60 90 60 "" 0 0 0 "">
  <50 400 130 400 "" 0 0 0 "">
  <50 230 140 230 "" 0 0 0 "">
  <50 170 360 170 "" 0 0 0 "">
  <360 170 360 230 "" 0 0 0 "">
</Wires>
<Diagrams>
</Diagrams>
<Paintings>
</Paintings>
