<Qucs Schematic 0.0.19>
<Properties>
  <View=-4,-20,691,472,1,0,0>
  <Grid=10,10,1>
  <DataSet=supply.dat>
  <DataDisplay=supply.dpl>
  <OpenDisplay=1>
  <Script=supply.m>
  <RunScript=0>
  <showFrame=0>
  <FrameText0=Title>
  <FrameText1=Drawn By:>
  <FrameText2=Date:>
  <FrameText3=Revision:>
</Properties>
<Symbol>
</Symbol>
<Components>
  <Diode D2 1 340 200 13 -26 1 3 "1e-15 A" 0 "1" 0 "10 fF" 0 "0.5" 0 "0.7 V" 0 "0.5" 0 "0.0 fF" 0 "0.0" 0 "2.0" 0 "0.0 Ohm" 0 "0.0 ps" 0 "0" 0 "0.0" 0 "1.0" 0 "1.0" 0 "0" 0 "1 mA" 0 "26.85" 0 "3.0" 0 "1.11" 0 "0.0" 0 "0.0" 0 "0.0" 0 "0.0" 0 "0.0" 0 "0.0" 0 "26.85" 0 "1.0" 0 "normal" 0>
  <Diode D4 1 280 200 -29 -26 0 3 "1e-15 A" 0 "1" 0 "10 fF" 0 "0.5" 0 "0.7 V" 0 "0.5" 0 "0.0 fF" 0 "0.0" 0 "2.0" 0 "0.0 Ohm" 0 "0.0 ps" 0 "0" 0 "0.0" 0 "1.0" 0 "1.0" 0 "0" 0 "1 mA" 0 "26.85" 0 "3.0" 0 "1.11" 0 "0.0" 0 "0.0" 0 "0.0" 0 "0.0" 0 "0.0" 0 "0.0" 0 "26.85" 0 "1.0" 0 "normal" 0>
  <Diode D1 1 310 170 -26 -27 0 2 "1e-15 A" 0 "1" 0 "10 fF" 0 "0.5" 0 "0.7 V" 0 "0.5" 0 "0.0 fF" 0 "0.0" 0 "2.0" 0 "0.0 Ohm" 0 "0.0 ps" 0 "0" 0 "0.0" 0 "1.0" 0 "1.0" 0 "0" 0 "1 mA" 0 "26.85" 0 "3.0" 0 "1.11" 0 "0.0" 0 "0.0" 0 "0.0" 0 "0.0" 0 "0.0" 0 "0.0" 0 "26.85" 0 "1.0" 0 "normal" 0>
  <R Load 1 570 220 15 -26 0 1 "100 Ohm" 1 "26.85" 0 "0.0" 0 "0.0" 0 "26.85" 0 "US" 0>
  <Diode D3 1 310 230 -26 13 1 2 "1e-15 A" 0 "1" 0 "10 fF" 0 "0.5" 0 "0.7 V" 0 "0.5" 0 "0.0 fF" 0 "0.0" 0 "2.0" 0 "0.0 Ohm" 0 "0.0 ps" 0 "0" 0 "0.0" 0 "1.0" 0 "1.0" 0 "0" 0 "1 mA" 0 "26.85" 0 "3.0" 0 "1.11" 0 "0.0" 0 "0.0" 0 "0.0" 0 "0.0" 0 "0.0" 0 "0.0" 0 "26.85" 0 "1.0" 0 "normal" 0>
  <GND * 1 570 250 0 0 0 0>
  <GND * 1 410 250 0 0 0 0>
  <GND * 1 260 230 0 0 0 0>
  <Tr Tr1 1 170 200 -29 37 0 0 "20" 1>
  <Vac V1 1 40 200 18 -26 0 1 "230 V" 1 "50 Hz" 1 "0" 0 "0" 0>
  <GND * 1 40 240 0 0 0 0>
  <.TR TR1 1 80 310 0 67 0 0 "lin" 1 "0" 1 "0.05 s" 1 "200" 1 "Trapezoidal" 0 "2" 0 "1 ns" 0 "1e-16" 0 "150" 0 "0.001" 0 "1 pA" 0 "1 uV" 0 "26.85" 0 "1e-3" 0 "1e-6" 0 "1" 0 "CroutLU" 0 "no" 0 "yes" 0 "0" 0>
  <R R1 1 110 170 -26 -43 1 0 "0.5 Ohm" 1 "26.85" 0 "0.0" 0 "0.0" 0 "26.85" 0 "european" 0>
  <C C1 1 410 220 17 -26 0 1 "1000 uF" 1 "" 0 "neutral" 0>
</Components>
<Wires>
  <570 170 570 190 "" 0 0 0 "">
  <340 170 410 170 "" 0 0 0 "">
  <410 170 570 170 "dc_voltage" 560 130 117 "">
  <410 170 410 190 "" 0 0 0 "">
  <260 230 280 230 "" 0 0 0 "">
  <200 280 340 280 "" 0 0 0 "">
  <200 230 200 280 "" 0 0 0 "">
  <340 230 340 280 "" 0 0 0 "">
  <40 230 40 240 "" 0 0 0 "">
  <40 230 140 230 "" 0 0 0 "">
  <200 170 280 170 "" 0 0 0 "">
  <40 170 80 170 "" 0 0 0 "">
</Wires>
<Diagrams>
</Diagrams>
<Paintings>
  <Arrow 200 60 -30 100 20 8 #000000 0 1 0>
  <Arrow 400 60 10 90 20 8 #000000 0 1 0>
  <Arrow 320 60 0 90 20 8 #000000 0 1 0>
  <Text 180 20 16 #000000 0 "conventional power supply:\ntransformer, 2-way-rectifier, filter">
</Paintings>
