<Qucs Schematic 0.0.19>
<Properties>
  <View=0,0,800,800,1,0,0>
  <Grid=10,10,1>
  <DataSet=sym_osci.dat>
  <DataDisplay=sym_osci.dpl>
  <OpenDisplay=1>
  <Script=sym_osci.m>
  <RunScript=0>
  <showFrame=0>
  <FrameText0=Title>
  <FrameText1=Drawn By:>
  <FrameText2=Date:>
  <FrameText3=Revision:>
</Properties>
<Symbol>
</Symbol>
<Components>
  <_MOSFET T6 1 430 80 8 -26 1 0 "pfet" 0 "-0.7 V" 1 "5e-4" 1 "1.15" 0 "0.65 V" 0 "0.02" 0 "1.0 Ohm" 0 "1.0 Ohm" 0 "0.0 Ohm" 0 "1e-15 A" 0 "1.0" 0 "1 um" 0 "1 um" 0 "0.1e-6" 0 "2e-8" 0 "4.0e-11" 0 "4.0e-11" 0 "2.0e-10" 0 "0.06e-15 F" 0 "0.06e-15 F" 0 "0.87 V" 0 "0.5" 0 "0.5" 0 "0.0" 0 "0.33" 0 "0.0 ps" 0 "4.0e15" 0 "1.0e10" 0 "1" 0 "400.0" 0 "10.0" 0 "1" 0 "1" 0 "2.0e-4" 0 "1.0e-8" 0 "0.0" 0 "0.0" 0 "0.0 m" 0 "0.0 m" 0 "0.0" 0 "1.0" 0 "1.0" 0 "26.85" 0 "26.85" 0>
  <_MOSFET T8 1 270 80 -69 -26 0 2 "pfet" 0 "-0.7 V" 1 "5e-4" 1 "1.15" 0 "0.65 V" 0 "0.02" 0 "1.0 Ohm" 0 "1.0 Ohm" 0 "0.0 Ohm" 0 "1e-15 A" 0 "1.0" 0 "1 um" 0 "1 um" 0 "0.1e-6" 0 "2e-8" 0 "4.0e-11" 0 "4.0e-11" 0 "2.0e-10" 0 "0.06e-15 F" 0 "0.06e-15 F" 0 "0.87 V" 0 "0.5" 0 "0.5" 0 "0.0" 0 "0.33" 0 "0.0 ps" 0 "4.0e15" 0 "1.0e10" 0 "1" 0 "400.0" 0 "10.0" 0 "1" 0 "1" 0 "2.0e-4" 0 "1.0e-8" 0 "0.0" 0 "0.0" 0 "0.0 m" 0 "0.0 m" 0 "0.0" 0 "1.0" 0 "1.0" 0 "26.85" 0 "26.85" 0>
  <GND * 1 120 120 0 0 0 0>
  <Vdc V1 1 120 90 18 -26 0 1 "5 V" 1>
  <_MOSFET T7 1 270 370 -64 -26 1 2 "nfet" 0 "0.7 V" 1 "5e-4" 1 "0.37" 0 "0.65 V" 0 "0.02" 0 "1.0 Ohm" 0 "1.0 Ohm" 0 "0.0 Ohm" 0 "1e-15 A" 0 "1.0" 0 "1 um" 0 "1 um" 0 "0.1e-6" 0 "2e-8" 0 "4.0e-11" 0 "4.0e-11" 0 "2.0e-10" 0 "0.06e-15 F" 0 "0.06e-15 F" 0 "0.87 V" 0 "0.5" 0 "0.5" 0 "0.0" 0 "0.33" 0 "0.0 ps" 0 "4.0e15" 0 "1.0e10" 0 "1" 0 "400.0" 0 "10.0" 0 "1" 0 "1" 0 "2.0e-4" 0 "1.0e-8" 0 "0.0" 0 "0.0" 0 "0.0 m" 0 "0.0 m" 0 "0.0" 0 "1.0" 0 "1.0" 0 "26.85" 0 "26.85" 0>
  <_MOSFET T5 1 430 370 8 -26 0 0 "nfet" 0 "0.7 V" 1 "5e-4" 1 "0.37" 0 "0.65 V" 0 "0.02" 0 "1.0 Ohm" 0 "1.0 Ohm" 0 "0.0 Ohm" 0 "1e-15 A" 0 "1.0" 0 "1 um" 0 "1 um" 0 "0.1e-6" 0 "2e-8" 0 "4.0e-11" 0 "4.0e-11" 0 "2.0e-10" 0 "0.06e-15 F" 0 "0.06e-15 F" 0 "0.87 V" 0 "0.5" 0 "0.5" 0 "0.0" 0 "0.33" 0 "0.0 ps" 0 "4.0e15" 0 "1.0e10" 0 "1" 0 "400.0" 0 "10.0" 0 "1" 0 "1" 0 "2.0e-4" 0 "1.0e-8" 0 "0.0" 0 "0.0" 0 "0.0 m" 0 "0.0 m" 0 "0.0" 0 "1.0" 0 "1.0" 0 "26.85" 0 "26.85" 0>
  <GND * 1 350 460 0 0 0 0>
  <C C1 1 350 270 -26 17 0 0 "20 pF" 1 "" 0 "neutral" 0>
  <R R1 1 350 150 -26 15 0 0 "500k" 1 "26.85" 0 "0.0" 0 "0.0" 0 "26.85" 0 "european" 0>
  <L L1 1 350 210 -26 10 0 0 "30 uH" 1 "" 0>
  <.TR TR1 1 120 180 0 67 0 0 "lin" 1 "0" 1 "3 us" 1 "200" 1 "Trapezoidal" 0 "2" 0 "1 ns" 0 "1e-16" 0 "150" 0 "0.001" 0 "1 pA" 0 "1 uV" 0 "26.85" 0 "1e-3" 0 "1e-6" 0 "1" 0 "CroutLU" 0 "no" 0 "yes" 0 "0" 0>
  <Tr Tr1 1 510 150 37 -29 0 1 "1" 1>
  <GND * 1 480 180 0 0 0 0>
  <GND * 1 540 300 0 0 0 0>
  <R R4 1 540 270 -73 -26 1 1 "1 kOhm" 1 "26.85" 0 "0.0" 0 "0.0" 0 "26.85" 0 "european" 0>
  <Idc I1 1 350 430 18 -26 1 3 "8 mA" 1>
</Components>
<Wires>
  <430 110 430 210 "" 0 0 0 "">
  <270 120 270 210 "" 0 0 0 "">
  <270 120 400 120 "" 0 0 0 "">
  <400 80 400 120 "" 0 0 0 "">
  <300 80 300 110 "" 0 0 0 "">
  <300 110 430 110 "" 0 0 0 "">
  <270 110 270 120 "" 0 0 0 "">
  <270 50 430 50 "" 0 0 0 "">
  <120 50 120 60 "" 0 0 0 "">
  <120 50 270 50 "" 0 0 0 "">
  <300 340 430 340 "" 0 0 0 "">
  <300 340 300 370 "" 0 0 0 "">
  <400 330 400 370 "" 0 0 0 "">
  <270 330 270 340 "" 0 0 0 "">
  <270 330 400 330 "" 0 0 0 "">
  <270 400 350 400 "" 0 0 0 "">
  <380 210 400 210 "" 0 0 0 "">
  <400 210 400 270 "" 0 0 0 "">
  <380 270 400 270 "" 0 0 0 "">
  <400 150 400 210 "" 0 0 0 "">
  <380 150 400 150 "" 0 0 0 "">
  <300 150 300 210 "" 0 0 0 "">
  <300 270 320 270 "" 0 0 0 "">
  <300 150 320 150 "" 0 0 0 "">
  <300 210 300 270 "" 0 0 0 "">
  <300 210 320 210 "" 0 0 0 "">
  <270 210 270 330 "" 0 0 0 "">
  <270 210 300 210 "" 0 0 0 "">
  <430 210 430 340 "" 0 0 0 "">
  <400 210 430 210 "" 0 0 0 "">
  <540 110 540 120 "" 0 0 0 "">
  <540 180 540 240 "Output" 560 190 41 "">
  <430 110 540 110 "" 0 0 0 "">
  <400 120 480 120 "" 0 0 0 "">
  <350 400 430 400 "" 0 0 0 "">
</Wires>
<Diagrams>
</Diagrams>
<Paintings>
</Paintings>
