<Qucs Schematic 0.0.19>
<Properties>
  <View=550,150,1940,830,0.741727,0,0>
  <Grid=10,10,1>
  <DataSet=X2_100_Bipolar.dat>
  <DataDisplay=X2_100_Bipolar.dpl>
  <OpenDisplay=1>
  <Script=X2_100_Bipolar.m>
  <RunScript=0>
  <showFrame=0>
  <FrameText0=Title>
  <FrameText1=Drawn By:>
  <FrameText2=Date:>
  <FrameText3=Revision:>
</Properties>
<Symbol>
</Symbol>
<Components>
  <C C4 5 1090 410 -39 -39 0 0 "470 pF" 1 "" 0 "neutral" 0>
  <C C5 5 1090 620 -26 17 0 0 "470 pF" 0 "" 0 "neutral" 0>
  <GND * 1 950 650 0 0 0 0>
  <C C6 5 810 520 -36 -37 0 0 "1000 pF" 1 "" 0 "neutral" 0>
  <R R13 5 900 460 -22 13 0 0 "680" 1 "26.85" 0 "0.0" 0 "0.0" 0 "26.85" 0 "US" 0>
  <GND * 1 1080 560 0 0 0 0>
  <R R9 5 1120 460 -65 -12 0 1 "1.5k" 1 "26.85" 0 "0.0" 0 "0.0" 0 "26.85" 0 "US" 0>
  <R R10 5 1120 580 15 -26 0 1 "1.5k" 0 "26.85" 0 "0.0" 0 "0.0" 0 "26.85" 0 "US" 0>
  <GND * 1 860 610 0 0 0 0>
  <R R14 5 860 570 -66 -7 0 1 "390" 1 "26.85" 0 "0.0" 0 "0.0" 0 "26.85" 0 "US" 0>
  <_BJT BFP420_1 5 950 520 8 -26 0 0 "npn" 0 "0.20045f" 0 "1.2432" 0 "1.3325" 0 "0.48731" 0 "0.69141m" 0 "28.383" 0 "19.705" 0 "19.049f" 0 "2.0518" 0 "0.019237f" 0 "1.1724" 0 "72.534" 0 "8.5757" 0 "3.4849" 0 "0.72983m" 0 "0.10105" 0 "0.31111" 0 "8.5757" 0 "1.8063f" 0 "0.8051" 0 "0.46576" 0 "234.53f" 0 "0.81696" 0 "0.30232" 0 "0.3" 0 "0" 0 "0.75" 0 "0" 0 "0.73234" 0 "6.7661p" 0 "0.42199" 0 "0.23794" 0 "1m" 0 "2.3249n" 0 "26.85" 0 "0" 0 "1" 0 "1" 0 "0" 0 "1" 0 "1" 0 "0" 0 "0" 0 "3" 0 "1.11" 0 "26.85" 0 "1" 0>
  <_BJT BFP420_2 5 1170 620 8 -26 0 0 "npn" 0 "0.20045f" 0 "1.2432" 0 "1.3325" 0 "0.48731" 0 "0.69141m" 0 "28.383" 0 "19.705" 0 "19.049f" 0 "2.0518" 0 "0.019237f" 0 "1.1724" 0 "72.534" 0 "8.5757" 0 "3.4849" 0 "0.72983m" 0 "0.10105" 0 "0.31111" 0 "8.5757" 0 "1.8063f" 0 "0.8051" 0 "0.46576" 0 "234.53f" 0 "0.81696" 0 "0.30232" 0 "0.3" 0 "0" 0 "0.75" 0 "0" 0 "0.73234" 0 "6.7661p" 0 "0.42199" 0 "0.23794" 0 "1m" 0 "2.3249n" 0 "26.85" 0 "0" 0 "1" 0 "1" 0 "0" 0 "1" 0 "1" 0 "0" 0 "0" 0 "3" 0 "1.11" 0 "26.85" 0 "1" 0>
  <_BJT BFP420_3 5 1240 410 8 -26 0 0 "npn" 0 "0.20045f" 0 "1.2432" 0 "1.3325" 0 "0.48731" 0 "0.69141m" 0 "28.383" 0 "19.705" 0 "19.049f" 0 "2.0518" 0 "0.019237f" 0 "1.1724" 0 "72.534" 0 "8.5757" 0 "3.4849" 0 "0.72983m" 0 "0.10105" 0 "0.31111" 0 "8.5757" 0 "1.8063f" 0 "0.8051" 0 "0.46576" 0 "234.53f" 0 "0.81696" 0 "0.30232" 0 "0.3" 0 "0" 0 "0.75" 0 "0" 0 "0.73234" 0 "6.7661p" 0 "0.42199" 0 "0.23794" 0 "1m" 0 "2.3249n" 0 "26.85" 0 "0" 0 "1" 0 "1" 0 "0" 0 "1" 0 "1" 0 "0" 0 "0" 0 "3" 0 "1.11" 0 "26.85" 0 "1" 0>
  <R R16 5 950 400 -60 -9 0 1 "100" 1 "26.85" 0 "0.0" 0 "0.0" 0 "26.85" 0 "US" 0>
  <R R15 5 950 620 -59 -8 0 1 "100" 1 "26.85" 0 "0.0" 0 "0.0" 0 "26.85" 0 "US" 0>
  <.DC DC1 5 680 330 0 42 0 0 "26.85" 0 "0.001" 0 "1 pA" 0 "1 uV" 0 "no" 0 "150" 0 "no" 0 "none" 0 "CroutLU" 0>
  <.TR TR1 1 680 380 0 69 0 0 "lin" 0 "0" 0 "2e-6" 1 "2001" 0 "Trapezoidal" 0 "2" 0 "1 ns" 0 "1e-16" 0 "150" 0 "0.001" 0 "1 pA" 0 "1 uV" 0 "26.85" 0 "1e-3" 0 "1e-6" 0 "1" 0 "CroutLU" 0 "no" 0 "yes" 0 "0" 0>
  <GND * 1 680 700 0 0 0 0>
  <R R17 5 680 580 18 6 0 1 "50 Ohm" 1 "26.85" 0 "0.0" 0 "0.0" 0 "26.85" 0 "US" 0>
  <R R11 5 1230 510 -26 15 0 0 "1e6" 1 "26.85" 0 "0.0" 0 "0.0" 0 "26.85" 0 "US" 0>
  <C C7 5 1080 540 -77 -30 0 1 "0.1 uF" 1 "" 0 "neutral" 0>
  <R R3 5 1420 430 13 -5 0 1 "50" 1 "26.85" 0 "0.0" 0 "0.0" 0 "26.85" 0 "US" 0>
  <C C3 5 1360 380 -31 -32 0 0 "470 pF" 1 "" 0 "neutral" 0>
  <R R12 5 990 570 -18 -33 0 0 "39" 1 "26.85" 0 "0.0" 0 "0.0" 0 "26.85" 0 "US" 0>
  <R R8 5 1310 560 15 -7 0 1 "39" 1 "26.85" 0 "0.0" 0 "0.0" 0 "26.85" 0 "US" 0>
  <Vdc V1 5 1310 640 -71 -6 0 1 "12 V" 1>
  <GND * 1 1310 670 0 0 0 0>
  <GND * 1 1170 670 0 0 0 0>
  <Eqn Eqn2 1 1370 630 -30 16 0 0 "VSWR=max(VSWR1,VSWR2)" 1 "VSWR1=(.5*rms(Vsource.Vt)/rms(Vinput.Vt))" 1 "VSWR2=1/VSWR1" 1 "yes" 0>
  <Eqn Eqn1 1 820 650 -30 16 0 0 "Power=rms(Vout.Vt)^2/50" 1 "Spectrum=16+dB(Time2Freq(Vout.Vt,time))" 1 "yes" 0>
  <L L2 5 730 520 -34 8 0 0 "60 nH" 1 "" 0>
  <L L1 5 1310 450 14 -6 0 1 "470 nH" 1 "" 0>
  <GND * 1 1240 460 0 0 0 0>
  <GND * 1 1420 470 0 0 0 0>
  <Vac V3 1 680 670 19 -8 0 1 "0.5 V" 1 "100 MHz" 1 "0" 0 "0" 0>
</Components>
<Wires>
  <1120 410 1210 410 "" 0 0 0 "">
  <1170 380 1240 380 "" 0 0 0 "">
  <1170 380 1170 590 "" 0 0 0 "">
  <1120 620 1140 620 "" 0 0 0 "">
  <950 550 950 570 "" 0 0 0 "">
  <950 460 950 490 "" 0 0 0 "">
  <930 460 950 460 "" 0 0 0 "">
  <840 520 860 520 "" 0 0 0 "">
  <860 520 920 520 "" 0 0 0 "">
  <860 460 860 520 "" 0 0 0 "">
  <860 460 870 460 "" 0 0 0 "">
  <1120 410 1120 430 "" 0 0 0 "">
  <1120 610 1120 620 "" 0 0 0 "">
  <1120 490 1120 510 "" 0 0 0 "">
  <860 520 860 540 "" 0 0 0 "">
  <860 600 860 610 "" 0 0 0 "">
  <1240 380 1310 380 "" 0 0 0 "">
  <950 430 950 460 "" 0 0 0 "">
  <1260 510 1310 510 "" 0 0 0 "">
  <1120 510 1120 550 "" 0 0 0 "">
  <1120 510 1200 510 "" 0 0 0 "">
  <1080 510 1120 510 "" 0 0 0 "">
  <1080 560 1080 570 "" 0 0 0 "">
  <1420 380 1420 400 "" 0 0 0 "">
  <1390 380 1420 380 "" 0 0 0 "">
  <1310 380 1330 380 "" 0 0 0 "">
  <950 570 950 590 "" 0 0 0 "">
  <950 570 960 570 "" 0 0 0 "">
  <1310 510 1310 530 "" 0 0 0 "">
  <1310 590 1310 600 "" 0 0 0 "">
  <1310 600 1310 610 "" 0 0 0 "">
  <1170 650 1170 670 "" 0 0 0 "">
  <1040 620 1060 620 "" 0 0 0 "">
  <1020 570 1040 570 "" 0 0 0 "">
  <1040 570 1040 620 "" 0 0 0 "">
  <950 460 1030 460 "" 0 0 0 "">
  <1030 410 1060 410 "" 0 0 0 "">
  <1030 410 1030 460 "" 0 0 0 "">
  <760 520 780 520 "" 0 0 0 "">
  <680 520 680 550 "" 0 0 0 "">
  <680 520 700 520 "" 0 0 0 "">
  <680 610 680 640 "" 0 0 0 "">
  <1310 380 1310 420 "" 0 0 0 "">
  <1310 480 1310 510 "" 0 0 0 "">
  <1240 440 1240 460 "" 0 0 0 "">
  <1420 460 1420 470 "" 0 0 0 "">
  <1310 600 1510 600 "" 0 0 0 "">
  <950 330 950 370 "" 0 0 0 "">
  <950 330 1510 330 "" 0 0 0 "">
  <1510 330 1510 600 "" 0 0 0 "">
  <680 640 680 640 "Vsource" 590 590 0 "">
  <1420 380 1420 380 "Vout" 1440 340 0 "">
  <680 520 680 520 "Vinput" 610 470 0 "">
</Wires>
<Diagrams>
  <Tab 1610 660 142 50 3 #c0c0c0 1 00 1 0 1 1 1 0 1 1 1 0 1 1 315 0 225 "" "" "">
	<"VSWR" #0000ff 0 3 0 0 0>
  </Tab>
  <Rect 1610 555 283 305 3 #c0c0c0 1 00 0 0 1e+08 5e+08 0 -30 10 20 1 -1 0.5 1 315 0 225 "Frequency, Hz" "" "">
	<"Spectrum" #0000ff 2 3 0 0 0>
  </Rect>
</Diagrams>
<Paintings>
  <Text 680 190 12 #ff0000 0 "Broad-band UHF transformerless frequency doubler using a bipolar transistor as a voltage/phase divider\nfollowed by a pair of bipolar Class "B" amplifiers combined to produce second harmonic of the input. Careful\nbalance is required to suppress the fundamental and third harmonic below -20 dBC.  The 0.1 uF capacitor\nbypasses R.F. plus the A.M. noise contribution of the 1 Meg resistor.  With high Ft transistors, this circuit\nshould be effective from low VHF to high UHF frequencies.">
  <Text 660 770 12 #000000 0 "Vary the frequency of V3 and observe the output spectrum (note that the doubler has gain).  May need\nto change the parameters of the transient simulation if simulation frequencies are not decade multiples.">
</Paintings>
